\relax 
\providecommand\hyper@newdestlabel[2]{}
\providecommand\HyperFirstAtBeginDocument{\AtBeginDocument}
\HyperFirstAtBeginDocument{\ifx\hyper@anchor\@undefined
\global\let\oldcontentsline\contentsline
\gdef\contentsline#1#2#3#4{\oldcontentsline{#1}{#2}{#3}}
\global\let\oldnewlabel\newlabel
\gdef\newlabel#1#2{\newlabelxx{#1}#2}
\gdef\newlabelxx#1#2#3#4#5#6{\oldnewlabel{#1}{{#2}{#3}}}
\AtEndDocument{\ifx\hyper@anchor\@undefined
\let\contentsline\oldcontentsline
\let\newlabel\oldnewlabel
\fi}
\fi}
\global\let\hyper@last\relax 
\gdef\HyperFirstAtBeginDocument#1{#1}
\providecommand\HyField@AuxAddToFields[1]{}
\providecommand\HyField@AuxAddToCoFields[2]{}
\citation{deFlorian:2016spz,Anastasiou:2016hlm,Harlander:2016hcx,Brooijmans:2016vro}
\citation{Butterworth:2015oua}
\citation{Tanabashi:2018oca}
\citation{deFlorian:2016spz}
\@writefile{toc}{\contentsline {section}{\numberline {1}Introduction}{1}{section.1}}
\citation{Graudenz:1992pv,Spira:1995rr}
\citation{Inami1983,Shifman1978,Spiridonov:1988md,Wilczek1977}
\newlabel{eq:scales}{{1.1}{2}{Introduction}{equation.1.1}{}}
\@writefile{toc}{\contentsline {section}{\numberline {2}Production Mechanisms}{2}{section.2}}
\@writefile{toc}{\contentsline {subsection}{\numberline {2.1}Production via a virtual top quark loop}{2}{subsection.2.1}}
\@writefile{lof}{\contentsline {figure}{\numberline {1}{\ignorespaces  Feynman diagrams for the LO production cross section of a scalar boson via a quark loop. Doubled lines represent the heavy boson. The dashed line separates the interfered amplitude and complex conjugate amplitude. The interference of two top quark loops is shown on the left and the interference of a top and a bottom quark loop on the right. \relax }}{2}{figure.caption.3}}
\providecommand*\caption@xref[2]{\@setref\relax\@undefined{#1}}
\newlabel{fig:ggF}{{1}{2}{Feynman diagrams for the LO production cross section of a scalar boson via a quark loop. Doubled lines represent the heavy boson. The dashed line separates the interfered amplitude and complex conjugate amplitude. The interference of two top quark loops is shown on the left and the interference of a top and a bottom quark loop on the right. \relax }{figure.caption.3}{}}
\newlabel{eq:ggfdec}{{2.1}{2}{Production via a virtual top quark loop}{equation.2.1}{}}
\@writefile{toc}{\contentsline {subsection}{\numberline {2.2}Production via a dim. 5 effective theory}{2}{subsection.2.2}}
\citation{Chetyrkin:1997un,Schroder:2005hy,Chetyrkin:2005ia,Kramer:1996iq}
\citation{Anastasiou:2015ema,Mistlberger:2018etf}
\citation{Harlander:2009mq,Pak:2009dg}
\citation{Anastasiou:2016hlm}
\@writefile{lof}{\contentsline {figure}{\numberline {2}{\ignorespaces  Feynman diagrams for the LO production cross section of a scalar boson via a dimension five operator. Doubled lines represent the heavy boson. The dashed line separates the interfered amplitude and complex conjugate amplitude. \relax }}{3}{figure.caption.4}}
\newlabel{fig:EFT}{{2}{3}{Feynman diagrams for the LO production cross section of a scalar boson via a dimension five operator. Doubled lines represent the heavy boson. The dashed line separates the interfered amplitude and complex conjugate amplitude. \relax }{figure.caption.4}{}}
\newlabel{eq:eftLagr}{{2.2}{3}{Production via a dim. 5 effective theory}{equation.2.2}{}}
\citation{Aglietti:2004nj,Actis:2008ug,Actis:2008ts,Anastasiou:2008tj,Bonetti:2018ukf,Anastasiou:2018adr}
\@writefile{toc}{\contentsline {subsection}{\numberline {2.3}Improved predictions for production via a virtual top quark loop }{4}{subsection.2.3}}
\@writefile{lof}{\contentsline {figure}{\numberline {3}{\ignorespaces  The left panel shows the ratio of the K-factor $K_{10}$ based on full QCD predictions over the same K-factor computed with the effective theory as a function of the mass of the scalar boson.. The right panel shows the K-factor $K_{31}^{EFF}$ computed in the effective theory as a function of the mass of the scalar boson. \relax }}{4}{figure.caption.5}}
\newlabel{fig:KFacs}{{3}{4}{The left panel shows the ratio of the K-factor $K_{10}$ based on full QCD predictions over the same K-factor computed with the effective theory as a function of the mass of the scalar boson.. The right panel shows the K-factor $K_{31}^{EFF}$ computed in the effective theory as a function of the mass of the scalar boson. \relax }{figure.caption.5}{}}
\@writefile{lof}{\contentsline {figure}{\numberline {4}{\ignorespaces  Feynman diagrams for the LO electroweak corrections to the production cross section of a scalar boson. Doubled lines represent the heavy boson. The dashed line separates the interfered amplitude and complex conjugate amplitude. Here, top quark loop diagrams are interfered with electro-weak gauge boson loop diagrams. \relax }}{5}{figure.caption.6}}
\newlabel{fig:EWK}{{4}{5}{Feynman diagrams for the LO electroweak corrections to the production cross section of a scalar boson. Doubled lines represent the heavy boson. The dashed line separates the interfered amplitude and complex conjugate amplitude. Here, top quark loop diagrams are interfered with electro-weak gauge boson loop diagrams. \relax }{figure.caption.6}{}}
\@writefile{toc}{\contentsline {subsection}{\numberline {2.4}Electro-Weak Corrections }{5}{subsection.2.4}}
\@writefile{toc}{\contentsline {subsection}{\numberline {2.5}Summary}{5}{subsection.2.5}}
\citation{Anastasiou:2016cez,deFlorian:2016spz,Harlander:2016hcx,Bonvini:2016frm}
\citation{Butterworth:2015oua}
\citation{Dulat:2018rbf}
\citation{Harlander:2012pb,Harlander:2016hcx}
\citation{Ball:2013bra,Bonvini:2014jma,Bonvini:2016frm,Ahmed:2016otz,Bonvini:2018ixe,Bonvini:2018iwt}
\citation{Catani:2007vq}
\bibdata{Bib}
\bibcite{deFlorian:2016spz}{{1}{}{{}}{{}}}
\@writefile{toc}{\contentsline {section}{\numberline {3}Uncertainties for Cross Sections}{6}{section.3}}
\@writefile{toc}{\contentsline {section}{\numberline {4}Tools}{6}{section.4}}
\newlabel{sec:tools}{{4}{6}{Tools}{section.4}{}}
\@writefile{toc}{\contentsline {section}{\numberline {5}Cross Section Predictions}{6}{section.5}}
\newlabel{sec:predictions}{{5}{6}{Cross Section Predictions}{section.5}{}}
\@writefile{toc}{\contentsline {subsection}{\numberline {5.1}Predictions for the SM Higgs Boson Production Cross Section}{6}{subsection.5.1}}
\@writefile{lot}{\contentsline {table}{\numberline {1}{\ignorespaces  cross sections for the productions of a scalar with mass $m_S$.\relax }}{6}{table.caption.7}}
\newlabel{tab:xsterms}{{1}{6}{cross sections for the productions of a scalar with mass $m_S$.\relax }{table.caption.7}{}}
\bibcite{Anastasiou:2016hlm}{{2}{}{{}}{{}}}
\@writefile{lot}{\contentsline {table}{\numberline {2}{\ignorespaces  Effective theory production cross section for a scalar particle with a mass in the range 10\nobreakspace  {}GeV to 150\nobreakspace  {}GeV. \relax }}{7}{table.caption.8}}
\newlabel{tab:xsvalslow}{{2}{7}{Effective theory production cross section for a scalar particle with a mass in the range 10~GeV to 150~GeV. \relax }{table.caption.8}{}}
\@writefile{toc}{\contentsline {subsection}{\numberline {5.2}Predictions for the dimension 5 Higgs Boson Production Cross Section}{7}{subsection.5.2}}
\@writefile{toc}{\contentsline {subsection}{\numberline {5.3}Predictions for the SM Higgs Boson Electro-Weak Corrections}{7}{subsection.5.3}}
\@writefile{lot}{\contentsline {table}{\numberline {3}{\ignorespaces  Effective theory production cross section for a scalar particle with a mass in the range 150\nobreakspace  {}GeV to 500\nobreakspace  {}GeV. \relax }}{8}{table.caption.9}}
\newlabel{tab:xsvalsmid}{{3}{8}{Effective theory production cross section for a scalar particle with a mass in the range 150~GeV to 500~GeV. \relax }{table.caption.9}{}}
\bibcite{Harlander:2016hcx}{{3}{}{{}}{{}}}
\bibcite{Brooijmans:2016vro}{{4}{}{{}}{{}}}
\bibcite{Butterworth:2015oua}{{5}{}{{}}{{}}}
\bibcite{Tanabashi:2018oca}{{6}{}{{}}{{}}}
\bibcite{Graudenz:1992pv}{{7}{}{{}}{{}}}
\@writefile{lot}{\contentsline {table}{\numberline {4}{\ignorespaces  Effective theory production cross section for a scalar particle with a mass in the range 500\nobreakspace  {}GeV to 1700\nobreakspace  {}GeV. \relax }}{9}{table.caption.10}}
\newlabel{tab:xsvalshigh}{{4}{9}{Effective theory production cross section for a scalar particle with a mass in the range 500~GeV to 1700~GeV. \relax }{table.caption.10}{}}
\bibcite{Spira:1995rr}{{8}{}{{}}{{}}}
\bibcite{Inami1983}{{9}{}{{}}{{}}}
\bibcite{Shifman1978}{{10}{}{{}}{{}}}
\bibcite{Spiridonov:1988md}{{11}{}{{}}{{}}}
\bibcite{Wilczek1977}{{12}{}{{}}{{}}}
\@writefile{lot}{\contentsline {table}{\numberline {5}{\ignorespaces  Production cross section for a scalar particle with a mass in the range 1750\nobreakspace  {}GeV to 3000\nobreakspace  {}GeV. \relax }}{10}{table.caption.11}}
\newlabel{tab:xsvalshigh2}{{5}{10}{Production cross section for a scalar particle with a mass in the range 1750~GeV to 3000~GeV. \relax }{table.caption.11}{}}
\bibcite{Chetyrkin:1997un}{{13}{}{{}}{{}}}
\bibcite{Schroder:2005hy}{{14}{}{{}}{{}}}
\bibcite{Chetyrkin:2005ia}{{15}{}{{}}{{}}}
\bibcite{Kramer:1996iq}{{16}{}{{}}{{}}}
\bibcite{Anastasiou:2015ema}{{17}{}{{}}{{}}}
\bibcite{Mistlberger:2018etf}{{18}{}{{}}{{}}}
\bibcite{Harlander:2009mq}{{19}{}{{}}{{}}}
\bibcite{Pak:2009dg}{{20}{}{{}}{{}}}
\bibcite{Aglietti:2004nj}{{21}{}{{}}{{}}}
\bibcite{Actis:2008ug}{{22}{}{{}}{{}}}
\bibcite{Actis:2008ts}{{23}{}{{}}{{}}}
\bibcite{Anastasiou:2008tj}{{24}{}{{}}{{}}}
\bibcite{Bonetti:2018ukf}{{25}{}{{}}{{}}}
\bibcite{Anastasiou:2018adr}{{26}{}{{}}{{}}}
\bibcite{Anastasiou:2016cez}{{27}{}{{}}{{}}}
\bibcite{Dulat:2018rbf}{{28}{}{{}}{{}}}
\bibcite{Harlander:2012pb}{{29}{}{{}}{{}}}
\bibcite{Ball:2013bra}{{30}{}{{}}{{}}}
\bibcite{Bonvini:2014jma}{{31}{}{{}}{{}}}
\bibcite{Bonvini:2016frm}{{32}{}{{}}{{}}}
\bibcite{Ahmed:2016otz}{{33}{}{{}}{{}}}
\bibcite{Bonvini:2018ixe}{{34}{}{{}}{{}}}
\bibcite{Bonvini:2018iwt}{{35}{}{{}}{{}}}
\bibcite{Catani:2007vq}{{36}{}{{}}{{}}}
\bibstyle{JHEP}
\providecommand\NAT@force@numbers{}\NAT@force@numbers
