%!PS-Adobe-3.0 EPSF-3.0
%%BoundingBox: 118 522 413 694
%%Creator: berni with JaxoDraw-2.1-0
%%Title: 
%%CreationDate: 27/3/2020
%%BeginProlog
/imStr 0 def /imageSrc {currentfile /ASCII85Decode filter /RunLengthDecode filter  imStr readstring pop } def
/BD {bind def} bind def
/D {def} BD
/C {curveto} BD
/L {lineto} BD
/M {moveto} BD
/R {grestore} BD
/G {gsave} BD
/N {newpath} BD
/P {closepath} BD
/EC {eoclip} BD
/WC {clip} BD
/EF {eofill} BD
/WF {fill} BD
/SG {setgray} BD
/SC {setrgbcolor} BD
/ISOF {
     dup findfont dup length 1 add dict begin {
             1 index /FID eq {pop pop} {D} ifelse
     } forall /Encoding ISOLatin1Encoding D
     currentdict end definefont
} BD
/NZ {dup 1 lt {pop 1} if} BD
/S {
     moveto 1 index stringwidth pop NZ sub
     1 index length 1 sub NZ div 0
     3 2 roll ashow newpath} BD
/FL [
    /AvantGarde-Book ISOF
    /AvantGarde-BookOblique ISOF
    /AvantGarde-Demi ISOF
    /AvantGarde-DemiOblique ISOF
    /Bookman-Demi ISOF
    /Bookman-DemiItalic ISOF
    /Bookman-Light ISOF
    /Bookman-LightItalic ISOF
    /Courier ISOF
    /Courier-Bold ISOF
    /Courier-BoldOblique ISOF
    /Courier-Oblique ISOF
    /Helvetica ISOF
    /Helvetica-Bold ISOF
    /Helvetica-BoldOblique ISOF
    /Helvetica-Narrow ISOF
    /Helvetica-Narrow-Bold ISOF
    /Helvetica-Narrow-BoldOblique ISOF
    /Helvetica-Narrow-Oblique ISOF
    /Helvetica-Oblique ISOF
    /NewCenturySchlbk-Bold ISOF
    /NewCenturySchlbk-BoldItalic ISOF
    /NewCenturySchlbk-Italic ISOF
    /NewCenturySchlbk-Roman ISOF
    /Palatino-Bold ISOF
    /Palatino-BoldItalic ISOF
    /Palatino-Italic ISOF
    /Palatino-Roman ISOF
    /Symbol findfont
    /Times-Bold ISOF
    /Times-BoldItalic ISOF
    /Times-Italic ISOF
    /Times-Roman ISOF
    /ZapfDingbats findfont
    /ZapfChancery-MediumItalic ISOF
] D
/F {
     FL exch get exch scalefont
     [1 0 0 -1 0 0] makefont setfont} BD
%%EndProlog
%%BeginSetup
<< /PageSize [612.0 792.0] /DeferredMediaSelection true /ImagingBBox null /ManualFeed false /NumCopies 1 >> pop 
%%EndSetup
%%Page: 1 1
/pgSave save def
792.0 0 exch translate 1 -1 scale[72 300.0 div 0 0 72 300.0 div 0 0]concat
G
[4.1666665 0.0 0.0 4.1666665 300.0 300.0] concat
N
0.0 0.0 M
468.0 0.0 L
468.0 648.0 L
0.0 648.0 L
0.0 0.0 L
P
WC
N
144.0 113.0 M
144.0 113.0 L
256.0 113.0 L
257.0 113.0 L
257.0 115.0 L
256.0 115.0 L
144.0 115.0 L
143.0 115.0 L
143.0 113.0 L
P
144.0 109.0 M
144.0 109.0 L
256.0 109.0 L
257.0 109.0 L
257.0 111.0 L
256.0 111.0 L
144.0 111.0 L
143.0 111.0 L
143.0 109.0 L
P
G
WC
WF
R N
N
47.336 31.252 M
47.336 31.252 L
50.37 28.56 55.09 26.844 59.551 30.561 C
58.91 31.329 L
59.551 30.561 L
64.421 34.62 63.211 40.398 60.376 43.8 C
60.376 43.8 L
58.137 46.487 54.285 48.302 51.286 45.803 C
51.926 45.034 L
51.286 45.803 L
48.451 43.44 49.272 39.608 51.41 37.043 C
51.41 37.043 L
54.422 33.428 60.562 31.404 66.532 36.379 C
65.892 37.147 L
66.532 36.379 L
72.503 41.355 71.619 47.758 68.607 51.374 C
68.607 51.374 L
66.469 53.939 62.848 55.438 60.013 53.075 C
60.653 52.307 L
60.013 53.075 L
57.178 50.713 57.999 46.881 60.137 44.315 C
60.137 44.315 L
63.15 40.7 69.289 38.676 75.26 43.652 C
75.26 43.652 L
75.26 43.652 L
81.23 48.627 80.347 55.031 77.334 58.646 C
77.334 58.646 L
75.196 61.212 71.575 62.711 68.74 60.348 C
68.74 60.348 L
68.74 60.348 L
65.905 57.986 66.726 54.154 68.864 51.588 C
68.864 51.588 L
71.877 47.973 78.016 45.949 83.987 50.925 C
83.347 51.693 L
83.987 50.925 L
89.958 55.9 89.074 62.304 86.061 65.919 C
86.061 65.919 L
83.923 68.485 80.303 69.983 77.468 67.621 C
78.108 66.853 L
77.468 67.621 L
74.633 65.258 75.454 61.426 77.592 58.861 C
77.592 58.861 L
80.604 55.246 86.744 53.222 92.714 58.197 C
92.074 58.966 L
92.714 58.197 L
98.685 63.173 97.801 69.577 94.789 73.192 C
94.789 73.192 L
92.651 75.757 89.03 77.256 86.195 74.894 C
86.835 74.125 L
86.195 74.894 L
83.36 72.531 84.181 68.699 86.319 66.134 C
86.319 66.134 L
89.332 62.519 95.471 60.495 101.442 65.47 C
100.801 66.238 L
101.442 65.47 L
107.412 70.446 106.529 76.849 103.516 80.465 C
103.516 80.465 L
101.378 83.03 97.757 84.529 94.922 82.166 C
95.562 81.398 L
94.922 82.166 L
92.087 79.804 92.908 75.972 95.046 73.406 C
95.046 73.406 L
98.059 69.791 104.198 67.767 110.169 72.743 C
109.529 73.511 L
110.169 72.743 L
116.139 77.718 115.256 84.122 112.243 87.737 C
112.243 87.737 L
110.105 90.303 106.484 91.801 103.649 89.439 C
104.29 88.671 L
103.649 89.439 L
100.814 87.076 101.636 83.245 103.773 80.679 C
103.773 80.679 L
106.786 77.064 112.926 75.04 118.896 80.016 C
118.896 80.016 L
118.896 80.016 L
124.867 84.991 123.983 91.395 120.97 95.01 C
120.97 95.01 L
118.833 97.576 115.212 99.074 112.377 96.712 C
113.017 95.943 L
112.377 96.712 L
109.542 94.349 110.363 90.517 112.501 87.952 C
112.501 87.952 L
115.513 84.337 121.653 82.313 127.623 87.288 C
126.983 88.057 L
127.623 87.288 L
133.594 92.264 132.71 98.668 129.698 102.283 C
129.698 102.283 L
127.56 104.848 123.939 106.347 121.104 103.984 C
121.744 103.216 L
121.104 103.984 L
118.269 101.622 119.09 97.79 121.228 95.225 C
121.228 95.225 L
124.241 91.609 130.38 89.586 136.351 94.561 C
135.71 95.329 L
136.351 94.561 L
142.321 99.537 141.438 105.94 138.425 109.555 C
138.425 109.555 L
136.287 112.121 132.666 113.62 129.831 111.257 C
129.831 111.257 L
129.831 111.257 L
126.832 108.758 127.923 104.641 130.162 101.954 C
130.162 101.954 L
132.997 98.553 138.462 96.32 143.332 100.379 C
143.332 100.379 L
143.332 100.379 L
147.793 104.097 146.956 109.048 144.855 112.518 C
144.338 113.373 L
142.627 112.338 L
143.145 111.482 L
144.972 108.463 145.446 104.744 142.052 101.916 C
142.692 101.147 L
142.052 101.916 L
138.324 98.809 134.099 100.354 131.698 103.235 C
131.698 103.235 L
129.67 105.669 129.453 108.339 131.112 109.721 C
130.471 110.489 L
131.112 109.721 L
132.677 111.025 135.046 110.486 136.889 108.275 C
136.889 108.275 L
139.278 105.408 140.095 100.285 135.07 96.097 C
135.07 96.097 L
130.045 91.91 125.154 93.638 122.764 96.505 C
122.764 96.505 L
120.922 98.716 120.819 101.144 122.384 102.448 C
122.384 102.448 L
122.384 102.448 L
123.949 103.752 126.319 103.214 128.161 101.002 C
128.161 101.002 L
130.551 98.135 131.368 93.012 126.343 88.825 C
126.343 88.825 L
126.343 88.825 L
121.318 84.637 116.426 86.365 114.037 89.232 C
114.037 89.232 L
112.195 91.443 112.092 93.871 113.657 95.175 C
113.657 95.175 L
113.657 95.175 L
115.222 96.479 117.591 95.941 119.434 93.73 C
119.434 93.73 L
121.823 90.863 122.641 85.739 117.616 81.552 C
118.256 80.784 L
117.616 81.552 L
112.591 77.365 107.699 79.092 105.31 81.959 C
105.31 81.959 L
103.467 84.171 103.365 86.598 104.93 87.903 C
104.93 87.903 L
106.495 89.207 108.864 88.668 110.707 86.457 C
110.707 86.457 L
113.096 83.59 113.913 78.467 108.888 74.279 C
108.888 74.279 L
108.888 74.279 L
103.863 70.092 98.972 71.82 96.583 74.687 C
96.583 74.687 L
94.74 76.898 94.637 79.326 96.202 80.63 C
96.202 80.63 L
96.202 80.63 L
97.767 81.934 100.137 81.395 101.979 79.184 C
101.979 79.184 L
104.369 76.317 105.186 71.194 100.161 67.007 C
100.161 67.007 L
100.161 67.007 L
95.136 62.819 90.245 64.547 87.855 67.414 C
87.855 67.414 L
86.013 69.625 85.91 72.053 87.475 73.357 C
87.475 73.357 L
89.04 74.661 91.41 74.123 93.252 71.911 C
93.252 71.911 L
95.641 69.044 96.459 63.921 91.434 59.734 C
91.434 59.734 L
91.434 59.734 L
86.409 55.546 81.517 57.274 79.128 60.141 C
79.128 60.141 L
77.285 62.353 77.183 64.78 78.748 66.084 C
78.748 66.084 L
78.748 66.084 L
80.313 67.389 82.682 66.85 84.525 64.639 C
84.525 64.639 L
86.914 61.772 87.732 56.649 82.707 52.461 C
82.707 52.461 L
82.707 52.461 L
77.682 48.274 72.79 50.002 70.401 52.869 C
70.401 52.869 L
68.558 55.08 68.456 57.507 70.021 58.812 C
69.38 59.58 L
70.021 58.812 L
71.586 60.116 73.955 59.577 75.798 57.366 C
75.798 57.366 L
78.187 54.499 79.004 49.376 73.979 45.188 C
74.62 44.42 L
73.979 45.188 L
68.954 41.001 64.063 42.729 61.674 45.596 C
61.674 45.596 L
59.831 47.807 59.728 50.235 61.293 51.539 C
61.293 51.539 L
62.858 52.843 65.228 52.304 67.07 50.093 C
67.07 50.093 L
69.46 47.226 70.277 42.103 65.252 37.916 C
65.252 37.916 L
65.252 37.916 L
60.227 33.728 55.335 35.456 52.946 38.323 C
52.946 38.323 L
51.104 40.534 51.001 42.962 52.566 44.266 C
52.566 44.266 L
52.566 44.266 L
54.224 45.648 56.811 44.953 58.84 42.519 C
58.84 42.519 L
61.241 39.638 61.998 35.204 58.27 32.097 C
58.27 32.097 L
58.27 32.097 L
54.877 29.269 51.304 30.406 48.664 32.748 C
47.916 33.412 L
46.588 31.916 L
P
G
WC
WF
R N
N
144.855 111.482 M
144.855 111.482 L
146.956 114.952 147.793 119.903 143.332 123.621 C
142.692 122.853 L
143.332 123.621 L
138.462 127.68 132.997 125.447 130.162 122.046 C
130.162 122.046 L
127.923 119.359 126.832 115.242 129.831 112.743 C
130.471 113.511 L
129.831 112.743 L
132.666 110.38 136.287 111.879 138.425 114.445 C
138.425 114.445 L
141.438 118.06 142.321 124.463 136.351 129.439 C
136.351 129.439 L
136.351 129.439 L
130.38 134.414 124.241 132.391 121.228 128.775 C
121.228 128.775 L
119.09 126.21 118.269 122.378 121.104 120.016 C
121.744 120.784 L
121.104 120.016 L
123.939 117.653 127.56 119.152 129.698 121.717 C
129.698 121.717 L
132.71 125.332 133.594 131.736 127.623 136.712 C
126.983 135.943 L
127.623 136.712 L
121.653 141.687 115.513 139.663 112.501 136.048 C
112.501 136.048 L
110.363 133.483 109.542 129.651 112.377 127.288 C
113.017 128.057 L
112.377 127.288 L
115.212 124.926 118.833 126.424 120.97 128.99 C
120.97 128.99 L
123.983 132.605 124.867 139.009 118.896 143.984 C
118.896 143.984 L
118.896 143.984 L
112.926 148.96 106.786 146.936 103.773 143.321 C
103.773 143.321 L
101.636 140.755 100.814 136.924 103.649 134.561 C
104.29 135.329 L
103.649 134.561 L
106.484 132.199 110.105 133.697 112.243 136.263 C
112.243 136.263 L
115.256 139.878 116.139 146.282 110.169 151.257 C
109.529 150.489 L
110.169 151.257 L
104.198 156.233 98.059 154.209 95.046 150.594 C
95.046 150.594 L
92.908 148.028 92.087 144.196 94.922 141.834 C
95.562 142.602 L
94.922 141.834 L
97.757 139.471 101.378 140.97 103.516 143.535 C
103.516 143.535 L
106.529 147.151 107.412 153.554 101.442 158.53 C
101.442 158.53 L
101.442 158.53 L
95.471 163.505 89.332 161.481 86.319 157.866 C
86.319 157.866 L
84.181 155.301 83.36 151.469 86.195 149.106 C
86.195 149.106 L
86.195 149.106 L
89.03 146.744 92.651 148.243 94.789 150.808 C
94.789 150.808 L
97.801 154.423 98.685 160.827 92.714 165.803 C
92.714 165.803 L
92.714 165.803 L
86.744 170.778 80.604 168.754 77.592 165.139 C
77.592 165.139 L
75.454 162.574 74.633 158.742 77.468 156.379 C
78.108 157.147 L
77.468 156.379 L
80.303 154.017 83.923 155.515 86.061 158.081 C
86.061 158.081 L
89.074 161.696 89.958 168.1 83.987 173.075 C
83.347 172.307 L
83.987 173.075 L
78.016 178.051 71.877 176.027 68.864 172.412 C
68.864 172.412 L
66.726 169.846 65.905 166.014 68.74 163.652 C
69.38 164.42 L
68.74 163.652 L
71.575 161.289 75.196 162.788 77.334 165.354 C
77.334 165.354 L
80.347 168.969 81.23 175.373 75.26 180.348 C
74.62 179.58 L
75.26 180.348 L
69.289 185.324 63.15 183.3 60.137 179.685 C
60.137 179.685 L
57.999 177.119 57.178 173.287 60.013 170.925 C
60.653 171.693 L
60.013 170.925 L
62.848 168.562 66.469 170.061 68.607 172.626 C
68.607 172.626 L
71.619 176.242 72.503 182.645 66.532 187.621 C
66.532 187.621 L
66.532 187.621 L
60.562 192.596 54.422 190.572 51.41 186.957 C
51.41 186.957 L
49.272 184.392 48.451 180.56 51.286 178.197 C
51.926 178.966 L
51.286 178.197 L
54.285 175.698 58.137 177.513 60.376 180.2 C
60.376 180.2 L
63.211 183.602 64.421 189.38 59.551 193.439 C
58.91 192.671 L
59.551 193.439 L
55.09 197.156 50.37 195.44 47.336 192.748 C
46.588 192.084 L
47.916 190.588 L
48.664 191.252 L
51.304 193.594 54.877 194.731 58.27 191.903 C
58.27 191.903 L
58.27 191.903 L
61.998 188.796 61.241 184.362 58.84 181.481 C
58.84 181.481 L
56.811 179.047 54.224 178.352 52.566 179.734 C
52.566 179.734 L
51.001 181.038 51.104 183.466 52.946 185.677 C
52.946 185.677 L
55.335 188.544 60.227 190.272 65.252 186.084 C
65.892 186.853 L
65.252 186.084 L
70.277 181.897 69.46 176.774 67.07 173.907 C
67.07 173.907 L
65.228 171.696 62.858 171.157 61.293 172.461 C
61.293 172.461 L
59.728 173.765 59.831 176.193 61.674 178.404 C
61.674 178.404 L
64.063 181.271 68.954 182.999 73.979 178.812 C
73.979 178.812 L
79.004 174.624 78.187 169.501 75.798 166.634 C
75.798 166.634 L
73.955 164.423 71.586 163.884 70.021 165.188 C
70.021 165.188 L
70.021 165.188 L
68.456 166.493 68.558 168.92 70.401 171.131 C
70.401 171.131 L
72.79 173.998 77.682 175.726 82.707 171.539 C
82.707 171.539 L
82.707 171.539 L
87.732 167.351 86.914 162.228 84.525 159.361 C
84.525 159.361 L
82.682 157.15 80.313 156.611 78.748 157.916 C
78.748 157.916 L
77.183 159.22 77.285 161.647 79.128 163.859 C
79.128 163.859 L
81.517 166.726 86.409 168.454 91.434 164.266 C
92.074 165.034 L
91.434 164.266 L
96.459 160.079 95.641 154.956 93.252 152.089 C
93.252 152.089 L
91.41 149.877 89.04 149.339 87.475 150.643 C
86.835 149.875 L
87.475 150.643 L
85.91 151.947 86.013 154.375 87.855 156.586 C
87.855 156.586 L
90.245 159.453 95.136 161.181 100.161 156.993 C
100.801 157.762 L
100.161 156.993 L
105.186 152.806 104.369 147.683 101.98 144.816 C
101.98 144.816 L
100.137 142.605 97.767 142.066 96.202 143.37 C
96.202 143.37 L
94.637 144.674 94.74 147.102 96.583 149.313 C
96.583 149.313 L
98.972 152.18 103.864 153.908 108.888 149.721 C
108.888 149.721 L
108.888 149.721 L
113.913 145.533 113.096 140.41 110.707 137.543 C
110.707 137.543 L
108.864 135.332 106.495 134.793 104.93 136.097 C
104.93 136.097 L
103.365 137.402 103.467 139.829 105.31 142.041 C
105.31 142.041 L
107.699 144.908 112.591 146.635 117.616 142.448 C
118.256 143.216 L
117.616 142.448 L
122.641 138.261 121.823 133.137 119.434 130.27 C
119.434 130.27 L
117.591 128.059 115.222 127.521 113.657 128.825 C
113.904 128.619 L
113.657 128.825 L
112.092 130.129 112.195 132.557 114.037 134.768 C
114.037 134.768 L
116.426 137.635 121.318 139.363 126.343 135.175 C
126.343 135.175 L
126.343 135.175 L
131.368 130.988 130.55 125.865 128.161 122.998 C
128.161 122.998 L
126.319 120.786 123.949 120.248 122.384 121.552 C
122.384 121.552 L
122.384 121.552 L
120.819 122.856 120.922 125.284 122.764 127.495 C
122.764 127.495 L
125.154 130.362 130.045 132.09 135.07 127.903 C
135.71 128.671 L
135.07 127.903 L
140.095 123.715 139.278 118.592 136.889 115.725 C
136.889 115.725 L
135.046 113.514 132.677 112.975 131.112 114.279 C
131.112 114.279 L
131.112 114.279 L
129.453 115.661 129.67 118.331 131.698 120.765 C
131.698 120.765 L
134.099 123.646 138.324 125.191 142.052 122.084 C
142.052 122.084 L
142.052 122.084 L
145.446 119.256 144.972 115.537 143.145 112.518 C
142.627 111.662 L
144.338 110.627 L
P
G
WC
WF
R N
1.0 SG
N
160.0 112.0 M
160.0 120.837 152.837 128.0 144.0 128.0 C
135.163 128.0 128.0 120.837 128.0 112.0 C
128.0 103.163 135.163 96.0 144.0 96.0 C
152.837 96.0 160.0 103.163 160.0 112.0 C
P
G
WC
WF
R N
0.0 SG
N
160.5 112.0 M
160.5 112.0 L
160.5 121.113 153.113 128.5 144.0 128.5 C
144.0 128.0 L
144.0 128.5 L
134.887 128.5 127.5 121.113 127.5 112.0 C
128.0 112.0 L
127.5 112.0 L
127.5 102.887 134.887 95.5 144.0 95.5 C
144.0 96.0 L
144.0 95.5 L
153.113 95.5 160.5 102.887 160.5 112.0 C
160.0 112.0 L
160.5 112.0 L
159.5 112.0 M
159.5 112.0 L
159.5 103.44 152.56 96.5 144.0 96.5 C
144.0 96.5 L
135.44 96.5 128.5 103.44 128.5 112.0 C
128.5 112.0 L
128.5 120.56 135.44 127.5 144.0 127.5 C
144.0 127.5 L
152.56 127.5 159.5 120.56 159.5 112.0 C
P
G
WC
WF
R N
N
255.195 112.594 M
255.195 112.594 L
252.789 109.333 251.496 104.483 255.59 100.39 C
255.59 100.39 L
255.59 100.39 L
260.067 95.913 265.707 97.643 268.837 100.772 C
268.837 100.772 L
271.311 103.246 272.772 107.249 270.01 110.01 C
270.01 110.01 L
270.01 110.01 L
267.4 112.621 263.655 111.454 261.293 109.091 C
261.293 109.091 L
257.967 105.766 256.505 99.475 261.99 93.99 C
261.99 93.99 L
261.99 93.99 L
267.475 88.505 273.766 89.967 277.091 93.293 C
277.091 93.293 L
279.454 95.655 280.621 99.4 278.01 102.01 C
277.303 101.303 L
278.01 102.01 L
275.4 104.621 271.656 103.454 269.293 101.091 C
269.293 101.091 L
265.967 97.766 264.505 91.475 269.99 85.99 C
269.99 85.99 L
269.99 85.99 L
275.475 80.505 281.766 81.967 285.091 85.293 C
285.091 85.293 L
287.454 87.655 288.621 91.4 286.01 94.01 C
285.303 93.303 L
286.01 94.01 L
283.4 96.621 279.656 95.454 277.293 93.091 C
277.293 93.091 L
273.967 89.766 272.505 83.475 277.99 77.99 C
277.99 77.99 L
277.99 77.99 L
283.475 72.505 289.766 73.967 293.091 77.293 C
293.091 77.293 L
295.454 79.655 296.621 83.4 294.01 86.01 C
293.303 85.303 L
294.01 86.01 L
291.4 88.621 287.656 87.454 285.293 85.091 C
285.293 85.091 L
281.967 81.766 280.505 75.475 285.99 69.99 C
285.99 69.99 L
285.99 69.99 L
291.475 64.505 297.766 65.967 301.091 69.293 C
301.091 69.293 L
303.454 71.655 304.621 75.4 302.01 78.01 C
301.303 77.303 L
302.01 78.01 L
299.4 80.621 295.656 79.454 293.293 77.091 C
293.293 77.091 L
289.967 73.766 288.505 67.475 293.99 61.99 C
294.697 62.697 L
293.99 61.99 L
299.475 56.505 305.766 57.967 309.091 61.293 C
309.091 61.293 L
311.454 63.655 312.621 67.4 310.01 70.01 C
309.303 69.303 L
310.01 70.01 L
307.4 72.621 303.655 71.454 301.293 69.091 C
301.293 69.091 L
297.967 65.766 296.505 59.475 301.99 53.99 C
301.99 53.99 L
301.99 53.99 L
307.475 48.505 313.766 49.967 317.091 53.293 C
317.091 53.293 L
319.454 55.655 320.621 59.4 318.01 62.01 C
317.303 61.303 L
318.01 62.01 L
315.4 64.621 311.655 63.454 309.293 61.091 C
309.293 61.091 L
305.967 57.766 304.505 51.475 309.99 45.99 C
310.697 46.697 L
309.99 45.99 L
315.475 40.505 321.766 41.967 325.091 45.293 C
325.091 45.293 L
327.454 47.655 328.621 51.4 326.01 54.01 C
325.303 53.303 L
326.01 54.01 L
323.4 56.621 319.655 55.454 317.293 53.091 C
317.293 53.091 L
313.967 49.766 312.505 43.475 317.99 37.99 C
318.697 38.697 L
317.99 37.99 L
323.475 32.505 329.766 33.967 333.091 37.293 C
333.091 37.293 L
335.454 39.655 336.621 43.4 334.01 46.01 C
333.303 45.303 L
334.01 46.01 L
331.249 48.772 327.246 47.311 324.772 44.837 C
324.772 44.837 L
321.643 41.707 319.913 36.067 324.39 31.59 C
324.39 31.59 L
324.39 31.59 L
328.483 27.496 333.333 28.789 336.594 31.195 C
337.398 31.789 L
336.211 33.398 L
335.406 32.805 L
332.564 30.707 328.911 29.897 325.804 33.004 C
325.097 32.297 L
325.804 33.004 L
322.38 36.428 323.535 40.771 326.186 43.423 C
326.186 43.423 L
328.428 45.665 331.069 46.123 332.596 44.596 C
332.596 44.596 L
332.596 44.596 L
334.038 43.155 333.714 40.744 331.677 38.707 C
331.677 38.707 L
329.038 36.068 324.017 34.791 319.404 39.404 C
319.404 39.404 L
319.404 39.404 L
314.791 44.017 316.068 49.038 318.707 51.677 C
318.707 51.677 L
320.744 53.714 323.155 54.038 324.596 52.596 C
324.596 52.596 L
324.596 52.596 L
326.038 51.155 325.714 48.744 323.677 46.707 C
323.677 46.707 L
321.038 44.068 316.017 42.791 311.404 47.404 C
311.404 47.404 L
311.404 47.404 L
306.791 52.017 308.068 57.038 310.707 59.677 C
310.707 59.677 L
312.744 61.714 315.155 62.038 316.596 60.596 C
316.596 60.596 L
316.596 60.596 L
318.038 59.155 317.714 56.744 315.677 54.707 C
315.677 54.707 L
313.038 52.068 308.017 50.791 303.404 55.404 C
302.697 54.697 L
303.404 55.404 L
298.791 60.017 300.068 65.038 302.707 67.677 C
302.707 67.677 L
304.744 69.714 307.155 70.038 308.596 68.596 C
308.596 68.596 L
308.596 68.596 L
310.038 67.155 309.714 64.744 307.677 62.707 C
307.677 62.707 L
305.038 60.068 300.017 58.791 295.404 63.404 C
295.404 63.404 L
295.404 63.404 L
290.791 68.017 292.068 73.038 294.707 75.677 C
294.707 75.677 L
296.744 77.714 299.155 78.038 300.596 76.596 C
300.596 76.596 L
300.596 76.596 L
302.038 75.155 301.714 72.744 299.677 70.707 C
299.677 70.707 L
297.038 68.068 292.017 66.791 287.404 71.404 C
286.697 70.697 L
287.404 71.404 L
282.791 76.017 284.068 81.038 286.707 83.677 C
286.707 83.677 L
288.744 85.714 291.155 86.038 292.596 84.596 C
292.596 84.596 L
292.596 84.596 L
294.038 83.155 293.714 80.744 291.677 78.707 C
291.677 78.707 L
289.038 76.068 284.017 74.791 279.404 79.404 C
278.697 78.697 L
279.404 79.404 L
274.791 84.017 276.068 89.038 278.707 91.677 C
278.707 91.677 L
280.744 93.714 283.155 94.038 284.596 92.596 C
284.596 92.596 L
284.596 92.596 L
286.038 91.155 285.714 88.744 283.677 86.707 C
283.677 86.707 L
281.038 84.068 276.017 82.791 271.404 87.404 C
270.697 86.697 L
271.404 87.404 L
266.791 92.017 268.068 97.038 270.707 99.677 C
270.707 99.677 L
272.744 101.714 275.155 102.038 276.596 100.596 C
276.596 100.596 L
276.596 100.596 L
278.038 99.155 277.714 96.744 275.677 94.707 C
275.677 94.707 L
273.038 92.068 268.017 90.791 263.404 95.404 C
262.697 94.697 L
263.404 95.404 L
258.791 100.017 260.068 105.038 262.707 107.677 C
262.707 107.677 L
264.744 109.714 267.155 110.038 268.596 108.596 C
269.303 109.303 L
268.596 108.596 L
270.123 107.069 269.665 104.428 267.423 102.186 C
267.423 102.186 L
264.771 99.535 260.428 98.38 257.004 101.804 C
256.297 101.097 L
257.004 101.804 L
253.897 104.911 254.707 108.564 256.805 111.406 C
257.398 112.211 L
255.789 113.398 L
P
G
WC
WF
R N
N
255.406 111.195 M
255.406 111.195 L
258.667 108.789 263.517 107.496 267.61 111.59 C
266.903 112.297 L
267.61 111.59 L
272.087 116.067 270.357 121.707 267.228 124.837 C
267.228 124.837 L
264.754 127.311 260.751 128.772 257.99 126.01 C
257.99 126.01 L
257.99 126.01 L
255.379 123.4 256.546 119.655 258.909 117.293 C
258.909 117.293 L
262.234 113.967 268.525 112.505 274.01 117.99 C
273.303 118.697 L
274.01 117.99 L
279.495 123.475 278.033 129.766 274.707 133.091 C
274.707 133.091 L
272.345 135.454 268.6 136.621 265.99 134.01 C
265.99 134.01 L
265.99 134.01 L
263.379 131.4 264.546 127.655 266.909 125.293 C
266.909 125.293 L
270.234 121.967 276.525 120.505 282.01 125.99 C
282.01 125.99 L
282.01 125.99 L
287.495 131.475 286.033 137.766 282.707 141.091 C
282.707 141.091 L
280.345 143.454 276.6 144.621 273.99 142.01 C
273.99 142.01 L
273.99 142.01 L
271.379 139.4 272.546 135.655 274.909 133.293 C
274.909 133.293 L
278.234 129.967 284.525 128.505 290.01 133.99 C
289.303 134.697 L
290.01 133.99 L
295.495 139.475 294.033 145.766 290.707 149.091 C
290.707 149.091 L
288.345 151.454 284.6 152.621 281.99 150.01 C
281.99 150.01 L
281.99 150.01 L
279.379 147.4 280.546 143.655 282.909 141.293 C
282.909 141.293 L
286.234 137.967 292.525 136.505 298.01 141.99 C
297.303 142.697 L
298.01 141.99 L
303.495 147.475 302.033 153.766 298.707 157.091 C
298.707 157.091 L
296.345 159.454 292.6 160.621 289.99 158.01 C
290.697 157.303 L
289.99 158.01 L
287.379 155.4 288.546 151.655 290.909 149.293 C
290.909 149.293 L
294.234 145.967 300.525 144.505 306.01 149.99 C
305.303 150.697 L
306.01 149.99 L
311.495 155.475 310.033 161.766 306.707 165.091 C
306.707 165.091 L
304.345 167.454 300.6 168.621 297.99 166.01 C
297.99 166.01 L
297.99 166.01 L
295.379 163.4 296.546 159.655 298.909 157.293 C
298.909 157.293 L
302.234 153.967 308.525 152.505 314.01 157.99 C
313.303 158.697 L
314.01 157.99 L
319.495 163.475 318.033 169.766 314.707 173.091 C
314.707 173.091 L
312.345 175.454 308.6 176.621 305.99 174.01 C
305.99 174.01 L
305.99 174.01 L
303.379 171.4 304.546 167.655 306.909 165.293 C
306.909 165.293 L
310.234 161.967 316.525 160.505 322.01 165.99 C
321.303 166.697 L
322.01 165.99 L
327.495 171.475 326.033 177.766 322.707 181.091 C
322.707 181.091 L
320.345 183.454 316.6 184.621 313.99 182.01 C
313.99 182.01 L
313.99 182.01 L
311.379 179.4 312.546 175.655 314.909 173.293 C
314.909 173.293 L
318.234 169.967 324.525 168.505 330.01 173.99 C
329.303 174.697 L
330.01 173.99 L
335.495 179.475 334.033 185.766 330.707 189.091 C
330.707 189.091 L
328.345 191.454 324.6 192.621 321.99 190.01 C
322.697 189.303 L
321.99 190.01 L
319.228 187.249 320.689 183.246 323.163 180.772 C
323.163 180.772 L
326.293 177.643 331.933 175.913 336.41 180.39 C
336.41 180.39 L
336.41 180.39 L
340.504 184.483 339.211 189.333 336.805 192.594 C
336.211 193.398 L
334.602 192.211 L
335.195 191.406 L
337.293 188.564 338.103 184.911 334.996 181.804 C
335.703 181.097 L
334.996 181.804 L
331.572 178.38 327.229 179.535 324.577 182.186 C
324.577 182.186 L
322.335 184.428 321.877 187.069 323.404 188.596 C
323.404 188.596 L
324.845 190.038 327.256 189.714 329.293 187.677 C
329.293 187.677 L
331.932 185.038 333.209 180.017 328.596 175.404 C
328.596 175.404 L
328.596 175.404 L
323.983 170.791 318.962 172.068 316.323 174.707 C
316.323 174.707 L
314.286 176.744 313.963 179.155 315.404 180.596 C
314.697 181.303 L
315.404 180.596 L
316.845 182.038 319.256 181.714 321.293 179.677 C
321.293 179.677 L
323.932 177.038 325.209 172.017 320.596 167.404 C
320.596 167.404 L
320.596 167.404 L
315.983 162.791 310.962 164.068 308.323 166.707 C
308.323 166.707 L
306.286 168.744 305.963 171.155 307.404 172.596 C
306.697 173.303 L
307.404 172.596 L
308.845 174.038 311.256 173.714 313.293 171.677 C
313.293 171.677 L
315.932 169.038 317.209 164.017 312.596 159.404 C
312.596 159.404 L
307.983 154.791 302.962 156.068 300.323 158.707 C
300.323 158.707 L
298.286 160.744 297.963 163.155 299.404 164.596 C
298.697 165.303 L
299.404 164.596 L
300.845 166.038 303.256 165.714 305.293 163.677 C
305.293 163.677 L
307.932 161.038 309.209 156.017 304.596 151.404 C
304.596 151.404 L
304.596 151.404 L
299.983 146.791 294.962 148.068 292.323 150.707 C
292.323 150.707 L
290.286 152.744 289.963 155.155 291.404 156.596 C
291.404 156.596 L
291.404 156.596 L
292.845 158.038 295.256 157.714 297.293 155.677 C
297.293 155.677 L
299.932 153.038 301.209 148.017 296.596 143.404 C
296.596 143.404 L
296.596 143.404 L
291.983 138.791 286.962 140.068 284.323 142.707 C
284.323 142.707 L
282.286 144.744 281.963 147.155 283.404 148.596 C
282.697 149.303 L
283.404 148.596 L
284.845 150.038 287.256 149.714 289.293 147.677 C
289.293 147.677 L
291.932 145.038 293.209 140.017 288.596 135.404 C
288.596 135.404 L
288.596 135.404 L
283.983 130.791 278.962 132.068 276.323 134.707 C
276.323 134.707 L
274.286 136.744 273.963 139.155 275.404 140.596 C
274.697 141.303 L
275.404 140.596 L
276.845 142.038 279.256 141.714 281.293 139.677 C
281.293 139.677 L
283.932 137.038 285.209 132.017 280.596 127.404 C
281.303 126.697 L
280.596 127.404 L
275.983 122.791 270.962 124.068 268.323 126.707 C
268.323 126.707 L
266.286 128.744 265.963 131.155 267.404 132.596 C
266.697 133.303 L
267.404 132.596 L
268.845 134.038 271.256 133.714 273.293 131.677 C
273.293 131.677 L
275.932 129.038 277.209 124.017 272.596 119.404 C
272.596 119.404 L
272.596 119.404 L
267.983 114.791 262.962 116.068 260.323 118.707 C
260.323 118.707 L
258.286 120.744 257.963 123.155 259.404 124.596 C
258.697 125.303 L
259.404 124.596 L
260.931 126.123 263.572 125.665 265.814 123.423 C
265.814 123.423 L
268.465 120.771 269.62 116.428 266.196 113.004 C
266.196 113.004 L
266.196 113.004 L
263.089 109.897 259.436 110.707 256.594 112.805 C
255.789 113.398 L
254.602 111.789 L
P
G
WC
WF
R N
1.0 SG
N
272.0 112.0 M
272.0 120.837 264.837 128.0 256.0 128.0 C
247.163 128.0 240.0 120.837 240.0 112.0 C
240.0 103.163 247.163 96.0 256.0 96.0 C
264.837 96.0 272.0 103.163 272.0 112.0 C
P
G
WC
WF
R N
0.0 SG
N
272.5 112.0 M
272.5 112.0 L
272.5 121.113 265.113 128.5 256.0 128.5 C
256.0 128.0 L
256.0 128.5 L
246.887 128.5 239.5 121.113 239.5 112.0 C
240.0 112.0 L
239.5 112.0 L
239.5 102.887 246.887 95.5 256.0 95.5 C
256.0 96.0 L
256.0 95.5 L
265.113 95.5 272.5 102.887 272.5 112.0 C
272.0 112.0 L
272.5 112.0 L
271.5 112.0 M
271.5 112.0 L
271.5 103.44 264.56 96.5 256.0 96.5 C
256.0 96.5 L
247.44 96.5 240.5 103.44 240.5 112.0 C
240.5 112.0 L
240.5 120.56 247.44 127.5 256.0 127.5 C
256.0 127.5 L
264.56 127.5 271.5 120.56 271.5 112.0 C
P
G
WC
WF
R N
N
193.0 42.0 M
193.0 42.0 L
193.0 44.0 L
193.0 44.552 192.552 45.0 192.0 45.0 C
191.448 45.0 191.0 44.552 191.0 44.0 C
191.0 44.0 L
191.0 42.0 L
191.0 41.448 191.448 41.0 192.0 41.0 C
192.552 41.0 193.0 41.448 193.0 42.0 C
P
193.0 52.0 M
193.0 52.0 L
193.0 54.0 L
193.0 54.552 192.552 55.0 192.0 55.0 C
191.448 55.0 191.0 54.552 191.0 54.0 C
191.0 54.0 L
191.0 52.0 L
191.0 51.448 191.448 51.0 192.0 51.0 C
192.552 51.0 193.0 51.448 193.0 52.0 C
P
193.0 62.0 M
193.0 62.0 L
193.0 64.0 L
193.0 64.552 192.552 65.0 192.0 65.0 C
191.448 65.0 191.0 64.552 191.0 64.0 C
191.0 64.0 L
191.0 62.0 L
191.0 61.448 191.448 61.0 192.0 61.0 C
192.552 61.0 193.0 61.448 193.0 62.0 C
P
193.0 72.0 M
193.0 72.0 L
193.0 74.0 L
193.0 74.552 192.552 75.0 192.0 75.0 C
191.448 75.0 191.0 74.552 191.0 74.0 C
191.0 74.0 L
191.0 72.0 L
191.0 71.448 191.448 71.0 192.0 71.0 C
192.552 71.0 193.0 71.448 193.0 72.0 C
P
193.0 82.0 M
193.0 82.0 L
193.0 84.0 L
193.0 84.552 192.552 85.0 192.0 85.0 C
191.448 85.0 191.0 84.552 191.0 84.0 C
191.0 84.0 L
191.0 82.0 L
191.0 81.448 191.448 81.0 192.0 81.0 C
192.552 81.0 193.0 81.448 193.0 82.0 C
P
193.0 92.0 M
193.0 92.0 L
193.0 94.0 L
193.0 94.552 192.552 95.0 192.0 95.0 C
191.448 95.0 191.0 94.552 191.0 94.0 C
191.0 94.0 L
191.0 92.0 L
191.0 91.448 191.448 91.0 192.0 91.0 C
192.552 91.0 193.0 91.448 193.0 92.0 C
P
193.0 102.0 M
193.0 102.0 L
193.0 104.0 L
193.0 104.552 192.552 105.0 192.0 105.0 C
191.448 105.0 191.0 104.552 191.0 104.0 C
191.0 104.0 L
191.0 102.0 L
191.0 101.448 191.448 101.0 192.0 101.0 C
192.552 101.0 193.0 101.448 193.0 102.0 C
P
193.0 112.0 M
193.0 112.0 L
193.0 114.0 L
193.0 114.552 192.552 115.0 192.0 115.0 C
191.448 115.0 191.0 114.552 191.0 114.0 C
191.0 114.0 L
191.0 112.0 L
191.0 111.448 191.448 111.0 192.0 111.0 C
192.552 111.0 193.0 111.448 193.0 112.0 C
P
193.0 122.0 M
193.0 122.0 L
193.0 124.0 L
193.0 124.552 192.552 125.0 192.0 125.0 C
191.448 125.0 191.0 124.552 191.0 124.0 C
191.0 124.0 L
191.0 122.0 L
191.0 121.448 191.448 121.0 192.0 121.0 C
192.552 121.0 193.0 121.448 193.0 122.0 C
P
193.0 132.0 M
193.0 132.0 L
193.0 134.0 L
193.0 134.552 192.552 135.0 192.0 135.0 C
191.448 135.0 191.0 134.552 191.0 134.0 C
191.0 134.0 L
191.0 132.0 L
191.0 131.448 191.448 131.0 192.0 131.0 C
192.552 131.0 193.0 131.448 193.0 132.0 C
P
193.0 142.0 M
193.0 142.0 L
193.0 144.0 L
193.0 144.552 192.552 145.0 192.0 145.0 C
191.448 145.0 191.0 144.552 191.0 144.0 C
191.0 144.0 L
191.0 142.0 L
191.0 141.448 191.448 141.0 192.0 141.0 C
192.552 141.0 193.0 141.448 193.0 142.0 C
P
193.0 152.0 M
193.0 152.0 L
193.0 154.0 L
193.0 154.552 192.552 155.0 192.0 155.0 C
191.448 155.0 191.0 154.552 191.0 154.0 C
191.0 154.0 L
191.0 152.0 L
191.0 151.448 191.448 151.0 192.0 151.0 C
192.552 151.0 193.0 151.448 193.0 152.0 C
P
193.0 162.0 M
193.0 162.0 L
193.0 164.0 L
193.0 164.552 192.552 165.0 192.0 165.0 C
191.448 165.0 191.0 164.552 191.0 164.0 C
191.0 164.0 L
191.0 162.0 L
191.0 161.448 191.448 161.0 192.0 161.0 C
192.552 161.0 193.0 161.448 193.0 162.0 C
P
193.0 172.0 M
193.0 172.0 L
193.0 174.0 L
193.0 174.552 192.552 175.0 192.0 175.0 C
191.448 175.0 191.0 174.552 191.0 174.0 C
191.0 174.0 L
191.0 172.0 L
191.0 171.448 191.448 171.0 192.0 171.0 C
192.552 171.0 193.0 171.448 193.0 172.0 C
P
193.0 182.0 M
193.0 182.0 L
193.0 184.0 L
193.0 184.552 192.552 185.0 192.0 185.0 C
191.448 185.0 191.0 184.552 191.0 184.0 C
191.0 184.0 L
191.0 182.0 L
191.0 181.448 191.448 181.0 192.0 181.0 C
192.552 181.0 193.0 181.448 193.0 182.0 C
P
193.0 32.0 M
193.0 32.0 L
193.0 34.0 L
193.0 34.552 192.552 35.0 192.0 35.0 C
191.448 35.0 191.0 34.552 191.0 34.0 C
191.0 34.0 L
191.0 32.0 L
191.0 31.448 191.448 31.0 192.0 31.0 C
192.552 31.0 193.0 31.448 193.0 32.0 C
P
G
WC
WF
R N
pgSave restore
showpage
%%EOF
