%!PS-Adobe-3.0 EPSF-3.0
%%BoundingBox: 116 524 479 692
%%Creator: berni with JaxoDraw-2.1-0
%%Title: 
%%CreationDate: 27/3/2020
%%BeginProlog
/imStr 0 def /imageSrc {currentfile /ASCII85Decode filter /RunLengthDecode filter  imStr readstring pop } def
/BD {bind def} bind def
/D {def} BD
/C {curveto} BD
/L {lineto} BD
/M {moveto} BD
/R {grestore} BD
/G {gsave} BD
/N {newpath} BD
/P {closepath} BD
/EC {eoclip} BD
/WC {clip} BD
/EF {eofill} BD
/WF {fill} BD
/SG {setgray} BD
/SC {setrgbcolor} BD
/ISOF {
     dup findfont dup length 1 add dict begin {
             1 index /FID eq {pop pop} {D} ifelse
     } forall /Encoding ISOLatin1Encoding D
     currentdict end definefont
} BD
/NZ {dup 1 lt {pop 1} if} BD
/S {
     moveto 1 index stringwidth pop NZ sub
     1 index length 1 sub NZ div 0
     3 2 roll ashow newpath} BD
/FL [
    /AvantGarde-Book ISOF
    /AvantGarde-BookOblique ISOF
    /AvantGarde-Demi ISOF
    /AvantGarde-DemiOblique ISOF
    /Bookman-Demi ISOF
    /Bookman-DemiItalic ISOF
    /Bookman-Light ISOF
    /Bookman-LightItalic ISOF
    /Courier ISOF
    /Courier-Bold ISOF
    /Courier-BoldOblique ISOF
    /Courier-Oblique ISOF
    /Helvetica ISOF
    /Helvetica-Bold ISOF
    /Helvetica-BoldOblique ISOF
    /Helvetica-Narrow ISOF
    /Helvetica-Narrow-Bold ISOF
    /Helvetica-Narrow-BoldOblique ISOF
    /Helvetica-Narrow-Oblique ISOF
    /Helvetica-Oblique ISOF
    /NewCenturySchlbk-Bold ISOF
    /NewCenturySchlbk-BoldItalic ISOF
    /NewCenturySchlbk-Italic ISOF
    /NewCenturySchlbk-Roman ISOF
    /Palatino-Bold ISOF
    /Palatino-BoldItalic ISOF
    /Palatino-Italic ISOF
    /Palatino-Roman ISOF
    /Symbol findfont
    /Times-Bold ISOF
    /Times-BoldItalic ISOF
    /Times-Italic ISOF
    /Times-Roman ISOF
    /ZapfDingbats findfont
    /ZapfChancery-MediumItalic ISOF
] D
/F {
     FL exch get exch scalefont
     [1 0 0 -1 0 0] makefont setfont} BD
%%EndProlog
%%BeginSetup
<< /PageSize [612.0 792.0] /DeferredMediaSelection true /ImagingBBox null /ManualFeed false /NumCopies 1 >> pop 
%%EndSetup
%%Page: 1 1
/pgSave save def
792.0 0 exch translate 1 -1 scale[72 300.0 div 0 0 72 300.0 div 0 0]concat
G
[4.1666665 0.0 0.0 4.1666665 300.0 300.0] concat
N
0.0 0.0 M
468.0 0.0 L
468.0 648.0 L
0.0 648.0 L
0.0 0.0 L
P
WC
N
144.0 113.0 M
144.0 113.0 L
256.0 113.0 L
257.0 113.0 L
257.0 115.0 L
256.0 115.0 L
144.0 115.0 L
143.0 115.0 L
143.0 113.0 L
P
144.0 109.0 M
144.0 109.0 L
256.0 109.0 L
257.0 109.0 L
257.0 111.0 L
256.0 111.0 L
144.0 111.0 L
143.0 111.0 L
143.0 109.0 L
P
G
WC
WF
R N
N
47.556 31.104 M
47.556 31.104 L
51.054 29.369 55.958 28.614 58.806 32.885 C
57.974 33.44 L
58.806 32.885 L
62.145 37.894 59.314 42.923 55.694 45.336 C
55.694 45.336 L
52.751 47.299 48.457 48.01 46.261 44.715 C
47.093 44.16 L
46.261 44.715 L
44.171 41.58 46.167 38.07 48.994 36.185 C
48.994 36.185 L
52.829 33.628 59.071 33.282 63.072 39.285 C
63.072 39.285 L
63.072 39.285 L
67.074 45.288 64.354 50.916 60.519 53.473 C
60.519 53.473 L
57.692 55.357 53.684 55.85 51.594 52.715 C
51.594 52.715 L
51.594 52.715 L
49.504 49.58 51.5 46.07 54.327 44.185 C
54.327 44.185 L
58.162 41.628 64.404 41.282 68.406 47.285 C
68.406 47.285 L
68.406 47.285 L
72.408 53.288 69.688 58.916 65.852 61.473 C
65.852 61.473 L
63.026 63.357 59.018 63.85 56.928 60.715 C
57.76 60.16 L
56.928 60.715 L
54.838 57.58 56.834 54.07 59.661 52.185 C
59.661 52.185 L
63.496 49.628 69.737 49.282 73.739 55.285 C
72.907 55.84 L
73.739 55.285 L
77.741 61.288 75.021 66.916 71.186 69.473 C
71.186 69.473 L
68.359 71.357 64.351 71.85 62.261 68.715 C
63.093 68.16 L
62.261 68.715 L
60.171 65.58 62.167 62.07 64.994 60.185 C
64.994 60.185 L
68.829 57.628 75.071 57.282 79.072 63.285 C
79.072 63.285 L
79.072 63.285 L
83.074 69.288 80.354 74.916 76.519 77.473 C
76.519 77.473 L
73.692 79.357 69.684 79.85 67.594 76.715 C
68.426 76.16 L
67.594 76.715 L
65.398 73.42 67.705 69.731 70.649 67.768 C
70.649 67.768 L
74.269 65.355 80.0 64.677 83.339 69.685 C
83.339 69.685 L
83.339 69.685 L
86.187 73.956 83.603 78.193 80.656 80.755 C
79.901 81.411 L
78.589 79.901 L
79.344 79.245 L
82.104 76.846 83.627 73.723 81.675 70.794 C
82.507 70.24 L
81.675 70.794 L
79.196 67.075 74.879 67.352 71.758 69.432 C
71.758 69.432 L
69.06 71.231 68.043 73.782 69.258 75.606 C
69.258 75.606 L
69.258 75.606 L
70.412 77.336 72.927 77.464 75.41 75.809 C
75.41 75.809 L
78.523 73.734 80.674 69.293 77.408 64.394 C
78.24 63.84 L
77.408 64.394 L
74.143 59.496 69.216 59.774 66.103 61.849 C
66.103 61.849 L
63.62 63.505 62.771 65.875 63.925 67.606 C
63.925 67.606 L
63.925 67.606 L
65.079 69.336 67.593 69.464 70.076 67.809 C
70.076 67.809 L
73.189 65.734 75.341 61.293 72.075 56.394 C
72.075 56.394 L
72.075 56.394 L
68.809 51.496 63.883 51.774 60.77 53.849 C
60.77 53.849 L
58.287 55.505 57.438 57.875 58.592 59.606 C
58.592 59.606 L
58.592 59.606 L
59.746 61.336 62.26 61.464 64.743 59.809 C
64.743 59.809 L
67.856 57.734 70.007 53.293 66.742 48.394 C
67.574 47.84 L
66.742 48.394 L
63.476 43.496 58.549 43.774 55.437 45.849 C
55.437 45.849 L
52.954 47.505 52.104 49.875 53.258 51.606 C
52.426 52.16 L
53.258 51.606 L
54.412 53.336 56.927 53.464 59.41 51.809 C
59.41 51.809 L
62.523 49.734 64.674 45.293 61.408 40.394 C
62.24 39.84 L
61.408 40.394 L
58.143 35.496 53.216 35.774 50.103 37.849 C
50.103 37.849 L
47.62 39.505 46.771 41.875 47.925 43.606 C
47.925 43.606 L
47.925 43.606 L
49.141 45.429 51.887 45.471 54.585 43.672 C
54.585 43.672 L
57.706 41.592 59.621 37.714 57.142 33.994 C
57.142 33.994 L
57.142 33.994 L
55.189 31.066 51.72 31.271 48.444 32.896 C
47.549 33.34 L
46.66 31.549 L
P
G
WC
WF
R N
N
80.656 143.245 M
80.656 143.245 L
83.603 145.807 86.187 150.044 83.339 154.315 C
83.339 154.315 L
83.339 154.315 L
80.0 159.323 74.269 158.645 70.649 156.232 C
70.649 156.232 L
67.705 154.269 65.398 150.58 67.594 147.285 C
68.426 147.84 L
67.594 147.285 L
69.684 144.15 73.692 144.643 76.519 146.527 C
76.519 146.527 L
80.354 149.084 83.074 154.712 79.072 160.715 C
78.24 160.16 L
79.072 160.715 L
75.071 166.718 68.829 166.372 64.994 163.815 C
64.994 163.815 L
62.167 161.93 60.171 158.42 62.261 155.285 C
63.093 155.84 L
62.261 155.285 L
64.351 152.15 68.359 152.643 71.186 154.527 C
71.186 154.527 L
75.021 157.084 77.741 162.712 73.739 168.715 C
72.907 168.16 L
73.739 168.715 L
69.737 174.718 63.496 174.372 59.661 171.815 C
59.661 171.815 L
56.834 169.93 54.838 166.42 56.928 163.285 C
57.76 163.84 L
56.928 163.285 L
59.018 160.15 63.026 160.643 65.852 162.527 C
65.852 162.527 L
69.688 165.084 72.408 170.712 68.406 176.715 C
67.574 176.16 L
68.406 176.715 L
64.404 182.718 58.162 182.372 54.327 179.815 C
54.327 179.815 L
51.5 177.93 49.504 174.42 51.594 171.285 C
52.426 171.84 L
51.594 171.285 L
53.684 168.15 57.692 168.643 60.519 170.527 C
60.519 170.527 L
64.354 173.084 67.074 178.712 63.072 184.715 C
62.24 184.16 L
63.072 184.715 L
59.071 190.718 52.829 190.372 48.994 187.815 C
48.994 187.815 L
46.167 185.93 44.171 182.42 46.261 179.285 C
47.093 179.84 L
46.261 179.285 L
48.457 175.99 52.751 176.701 55.694 178.664 C
55.694 178.664 L
59.314 181.077 62.145 186.107 58.806 191.115 C
58.806 191.115 L
58.806 191.115 L
55.958 195.386 51.054 194.631 47.556 192.896 C
46.66 192.451 L
47.549 190.66 L
48.444 191.104 L
51.72 192.729 55.189 192.934 57.142 190.006 C
57.974 190.56 L
57.142 190.006 L
59.621 186.286 57.706 182.408 54.585 180.328 C
54.585 180.328 L
51.887 178.529 49.141 178.571 47.925 180.394 C
47.925 180.394 L
46.771 182.125 47.62 184.495 50.103 186.151 C
50.103 186.151 L
53.216 188.226 58.143 188.504 61.408 183.606 C
61.408 183.606 L
61.408 183.606 L
64.674 178.707 62.523 174.266 59.41 172.191 C
59.41 172.191 L
56.927 170.536 54.412 170.664 53.258 172.394 C
53.258 172.394 L
53.258 172.394 L
52.104 174.125 52.954 176.495 55.437 178.151 C
55.437 178.151 L
58.549 180.226 63.476 180.504 66.742 175.606 C
66.742 175.606 L
66.742 175.606 L
70.007 170.707 67.856 166.266 64.743 164.191 C
64.743 164.191 L
62.26 162.536 59.746 162.664 58.592 164.394 C
58.592 164.394 L
58.592 164.394 L
57.438 166.125 58.287 168.495 60.77 170.151 C
60.77 170.151 L
63.883 172.226 68.809 172.504 72.075 167.606 C
72.075 167.606 L
72.075 167.606 L
75.341 162.707 73.189 158.266 70.076 156.191 C
70.076 156.191 L
67.593 154.536 65.079 154.664 63.925 156.394 C
63.925 156.394 L
63.925 156.394 L
62.771 158.125 63.62 160.495 66.103 162.151 C
66.103 162.151 L
69.216 164.226 74.143 164.504 77.408 159.606 C
77.408 159.606 L
77.408 159.606 L
80.674 154.707 78.523 150.266 75.41 148.191 C
75.41 148.191 L
72.927 146.536 70.412 146.664 69.258 148.394 C
69.258 148.394 L
69.258 148.394 L
68.043 150.218 69.06 152.769 71.758 154.568 C
71.758 154.568 L
74.879 156.648 79.196 156.925 81.675 153.206 C
82.507 153.76 L
81.675 153.206 L
83.627 150.277 82.104 147.154 79.344 144.755 C
78.589 144.099 L
79.901 142.589 L
P
G
WC
WF
R N
N
367.344 80.755 M
367.344 80.755 L
364.397 78.193 361.813 73.956 364.661 69.685 C
364.661 69.685 L
364.661 69.685 L
368.0 64.677 373.731 65.355 377.351 67.768 C
377.351 67.768 L
380.295 69.731 382.602 73.42 380.406 76.715 C
379.574 76.16 L
380.406 76.715 L
378.316 79.85 374.308 79.357 371.481 77.473 C
371.481 77.473 L
367.646 74.916 364.926 69.288 368.928 63.285 C
369.76 63.84 L
368.928 63.285 L
372.929 57.282 379.171 57.628 383.006 60.185 C
383.006 60.185 L
385.833 62.07 387.829 65.58 385.739 68.715 C
384.907 68.16 L
385.739 68.715 L
383.649 71.85 379.641 71.357 376.814 69.473 C
376.814 69.473 L
372.979 66.916 370.259 61.288 374.261 55.285 C
375.093 55.84 L
374.261 55.285 L
378.263 49.282 384.504 49.628 388.339 52.185 C
388.339 52.185 L
391.166 54.07 393.162 57.58 391.072 60.715 C
391.072 60.715 L
391.072 60.715 L
388.982 63.85 384.974 63.357 382.148 61.473 C
382.148 61.473 L
378.312 58.916 375.592 53.288 379.594 47.285 C
380.426 47.84 L
379.594 47.285 L
383.596 41.282 389.838 41.628 393.673 44.185 C
393.673 44.185 L
396.5 46.07 398.496 49.58 396.406 52.715 C
395.574 52.16 L
396.406 52.715 L
394.316 55.85 390.308 55.357 387.481 53.473 C
387.481 53.473 L
383.646 50.916 380.926 45.288 384.928 39.285 C
384.928 39.285 L
384.928 39.285 L
388.929 33.282 395.171 33.628 399.006 36.185 C
399.006 36.185 L
401.833 38.07 403.829 41.58 401.739 44.715 C
401.739 44.715 L
401.739 44.715 L
399.543 48.01 395.249 47.299 392.306 45.336 C
392.306 45.336 L
388.686 42.923 385.855 37.893 389.194 32.885 C
389.194 32.885 L
389.194 32.885 L
392.042 28.614 396.947 29.369 400.444 31.104 C
401.34 31.549 L
400.451 33.34 L
399.556 32.896 L
396.28 31.271 392.811 31.066 390.858 33.994 C
390.026 33.44 L
390.858 33.994 L
388.379 37.714 390.294 41.592 393.415 43.672 C
393.415 43.672 L
396.113 45.471 398.859 45.429 400.075 43.606 C
400.907 44.16 L
400.075 43.606 L
401.229 41.875 400.38 39.505 397.897 37.849 C
397.897 37.849 L
394.784 35.774 389.857 35.496 386.592 40.394 C
385.76 39.84 L
386.592 40.394 L
383.326 45.293 385.477 49.734 388.59 51.809 C
388.59 51.809 L
391.073 53.464 393.588 53.336 394.742 51.606 C
394.742 51.606 L
394.742 51.606 L
395.896 49.875 395.046 47.505 392.563 45.849 C
392.563 45.849 L
389.451 43.774 384.524 43.496 381.258 48.394 C
381.258 48.394 L
381.258 48.394 L
377.993 53.293 380.144 57.734 383.257 59.809 C
383.257 59.809 L
385.74 61.464 388.254 61.336 389.408 59.606 C
390.24 60.16 L
389.408 59.606 L
390.562 57.875 389.713 55.505 387.23 53.849 C
387.23 53.849 L
384.117 51.774 379.191 51.496 375.925 56.394 C
375.925 56.394 L
375.925 56.394 L
372.659 61.293 374.811 65.734 377.924 67.809 C
377.924 67.809 L
380.407 69.464 382.921 69.336 384.075 67.606 C
384.075 67.606 L
384.075 67.606 L
385.229 65.875 384.38 63.505 381.897 61.849 C
381.897 61.849 L
378.784 59.774 373.857 59.496 370.592 64.394 C
370.592 64.394 L
370.592 64.394 L
367.326 69.293 369.477 73.734 372.59 75.809 C
372.59 75.809 L
375.073 77.464 377.588 77.336 378.742 75.606 C
378.742 75.606 L
378.742 75.606 L
379.957 73.782 378.94 71.231 376.242 69.432 C
376.242 69.432 L
373.121 67.352 368.804 67.075 366.325 70.794 C
365.493 70.24 L
366.325 70.794 L
364.373 73.723 365.896 76.846 368.656 79.245 C
369.411 79.901 L
368.099 81.411 L
P
G
WC
WF
R N
N
367.556 143.104 M
367.556 143.104 L
371.054 141.369 375.958 140.614 378.806 144.885 C
378.806 144.885 L
378.806 144.885 L
382.145 149.894 379.314 154.923 375.695 157.336 C
375.695 157.336 L
372.751 159.299 368.457 160.01 366.261 156.715 C
367.093 156.16 L
366.261 156.715 L
364.171 153.58 366.167 150.07 368.994 148.185 C
368.994 148.185 L
372.829 145.628 379.071 145.282 383.072 151.285 C
382.24 151.84 L
383.072 151.285 L
387.074 157.288 384.354 162.916 380.519 165.473 C
380.519 165.473 L
377.692 167.357 373.684 167.85 371.594 164.715 C
372.426 164.16 L
371.594 164.715 L
369.504 161.58 371.5 158.07 374.327 156.185 C
374.327 156.185 L
378.162 153.628 384.404 153.282 388.406 159.285 C
387.574 159.84 L
388.406 159.285 L
392.408 165.288 389.688 170.916 385.852 173.473 C
385.852 173.473 L
383.026 175.357 379.018 175.85 376.928 172.715 C
377.76 172.16 L
376.928 172.715 L
374.838 169.58 376.834 166.07 379.661 164.185 C
379.661 164.185 L
383.496 161.628 389.737 161.282 393.739 167.285 C
392.907 167.84 L
393.739 167.285 L
397.741 173.288 395.021 178.916 391.186 181.473 C
391.186 181.473 L
388.359 183.357 384.351 183.85 382.261 180.715 C
383.093 180.16 L
382.261 180.715 L
380.171 177.58 382.167 174.07 384.994 172.185 C
384.994 172.185 L
388.829 169.628 395.071 169.282 399.072 175.285 C
398.24 175.84 L
399.072 175.285 L
403.074 181.288 400.354 186.916 396.519 189.473 C
396.519 189.473 L
393.692 191.357 389.684 191.85 387.594 188.715 C
388.426 188.16 L
387.594 188.715 L
385.398 185.42 387.705 181.731 390.649 179.768 C
390.649 179.768 L
394.269 177.355 400.0 176.677 403.339 181.685 C
403.339 181.685 L
403.339 181.685 L
406.187 185.956 403.603 190.193 400.656 192.755 C
399.901 193.411 L
398.589 191.901 L
399.344 191.245 L
402.104 188.846 403.627 185.723 401.675 182.794 C
402.507 182.24 L
401.675 182.794 L
399.196 179.075 394.879 179.352 391.758 181.432 C
391.758 181.432 L
389.06 183.231 388.043 185.782 389.258 187.606 C
389.258 187.606 L
389.258 187.606 L
390.412 189.336 392.927 189.464 395.41 187.809 C
395.41 187.809 L
398.523 185.734 400.674 181.293 397.408 176.394 C
397.408 176.394 L
397.408 176.394 L
394.143 171.496 389.216 171.774 386.103 173.849 C
386.103 173.849 L
383.62 175.505 382.771 177.875 383.925 179.606 C
383.925 179.606 L
383.925 179.606 L
385.079 181.336 387.593 181.464 390.076 179.809 C
390.076 179.809 L
393.189 177.734 395.341 173.293 392.075 168.394 C
392.075 168.394 L
392.075 168.394 L
388.809 163.496 383.883 163.774 380.77 165.849 C
380.77 165.849 L
378.287 167.505 377.438 169.875 378.592 171.606 C
378.592 171.606 L
378.592 171.606 L
379.746 173.336 382.26 173.464 384.743 171.809 C
384.743 171.809 L
387.856 169.734 390.007 165.293 386.742 160.394 C
386.742 160.394 L
386.742 160.394 L
383.476 155.496 378.549 155.774 375.437 157.849 C
375.437 157.849 L
372.954 159.505 372.104 161.875 373.258 163.606 C
373.258 163.606 L
373.258 163.606 L
374.412 165.336 376.927 165.464 379.41 163.809 C
379.41 163.809 L
382.523 161.734 384.674 157.293 381.408 152.394 C
381.408 152.394 L
381.408 152.394 L
378.143 147.496 373.216 147.774 370.103 149.849 C
370.103 149.849 L
367.62 151.505 366.771 153.875 367.925 155.606 C
367.925 155.606 L
367.925 155.606 L
369.141 157.429 371.887 157.471 374.585 155.672 C
374.585 155.672 L
377.706 153.592 379.621 149.714 377.142 145.994 C
377.974 145.44 L
377.142 145.994 L
375.189 143.066 371.72 143.271 368.444 144.896 C
367.549 145.34 L
366.66 143.549 L
P
G
WC
WF
R N
N
193.0 42.0 M
193.0 42.0 L
193.0 44.0 L
193.0 44.552 192.552 45.0 192.0 45.0 C
191.448 45.0 191.0 44.552 191.0 44.0 C
191.0 44.0 L
191.0 42.0 L
191.0 41.448 191.448 41.0 192.0 41.0 C
192.552 41.0 193.0 41.448 193.0 42.0 C
P
193.0 52.0 M
193.0 52.0 L
193.0 54.0 L
193.0 54.552 192.552 55.0 192.0 55.0 C
191.448 55.0 191.0 54.552 191.0 54.0 C
191.0 54.0 L
191.0 52.0 L
191.0 51.448 191.448 51.0 192.0 51.0 C
192.552 51.0 193.0 51.448 193.0 52.0 C
P
193.0 62.0 M
193.0 62.0 L
193.0 64.0 L
193.0 64.552 192.552 65.0 192.0 65.0 C
191.448 65.0 191.0 64.552 191.0 64.0 C
191.0 64.0 L
191.0 62.0 L
191.0 61.448 191.448 61.0 192.0 61.0 C
192.552 61.0 193.0 61.448 193.0 62.0 C
P
193.0 72.0 M
193.0 72.0 L
193.0 74.0 L
193.0 74.552 192.552 75.0 192.0 75.0 C
191.448 75.0 191.0 74.552 191.0 74.0 C
191.0 74.0 L
191.0 72.0 L
191.0 71.448 191.448 71.0 192.0 71.0 C
192.552 71.0 193.0 71.448 193.0 72.0 C
P
193.0 82.0 M
193.0 82.0 L
193.0 84.0 L
193.0 84.552 192.552 85.0 192.0 85.0 C
191.448 85.0 191.0 84.552 191.0 84.0 C
191.0 84.0 L
191.0 82.0 L
191.0 81.448 191.448 81.0 192.0 81.0 C
192.552 81.0 193.0 81.448 193.0 82.0 C
P
193.0 92.0 M
193.0 92.0 L
193.0 94.0 L
193.0 94.552 192.552 95.0 192.0 95.0 C
191.448 95.0 191.0 94.552 191.0 94.0 C
191.0 94.0 L
191.0 92.0 L
191.0 91.448 191.448 91.0 192.0 91.0 C
192.552 91.0 193.0 91.448 193.0 92.0 C
P
193.0 102.0 M
193.0 102.0 L
193.0 104.0 L
193.0 104.552 192.552 105.0 192.0 105.0 C
191.448 105.0 191.0 104.552 191.0 104.0 C
191.0 104.0 L
191.0 102.0 L
191.0 101.448 191.448 101.0 192.0 101.0 C
192.552 101.0 193.0 101.448 193.0 102.0 C
P
193.0 112.0 M
193.0 112.0 L
193.0 114.0 L
193.0 114.552 192.552 115.0 192.0 115.0 C
191.448 115.0 191.0 114.552 191.0 114.0 C
191.0 114.0 L
191.0 112.0 L
191.0 111.448 191.448 111.0 192.0 111.0 C
192.552 111.0 193.0 111.448 193.0 112.0 C
P
193.0 122.0 M
193.0 122.0 L
193.0 124.0 L
193.0 124.552 192.552 125.0 192.0 125.0 C
191.448 125.0 191.0 124.552 191.0 124.0 C
191.0 124.0 L
191.0 122.0 L
191.0 121.448 191.448 121.0 192.0 121.0 C
192.552 121.0 193.0 121.448 193.0 122.0 C
P
193.0 132.0 M
193.0 132.0 L
193.0 134.0 L
193.0 134.552 192.552 135.0 192.0 135.0 C
191.448 135.0 191.0 134.552 191.0 134.0 C
191.0 134.0 L
191.0 132.0 L
191.0 131.448 191.448 131.0 192.0 131.0 C
192.552 131.0 193.0 131.448 193.0 132.0 C
P
193.0 142.0 M
193.0 142.0 L
193.0 144.0 L
193.0 144.552 192.552 145.0 192.0 145.0 C
191.448 145.0 191.0 144.552 191.0 144.0 C
191.0 144.0 L
191.0 142.0 L
191.0 141.448 191.448 141.0 192.0 141.0 C
192.552 141.0 193.0 141.448 193.0 142.0 C
P
193.0 152.0 M
193.0 152.0 L
193.0 154.0 L
193.0 154.552 192.552 155.0 192.0 155.0 C
191.448 155.0 191.0 154.552 191.0 154.0 C
191.0 154.0 L
191.0 152.0 L
191.0 151.448 191.448 151.0 192.0 151.0 C
192.552 151.0 193.0 151.448 193.0 152.0 C
P
193.0 162.0 M
193.0 162.0 L
193.0 164.0 L
193.0 164.552 192.552 165.0 192.0 165.0 C
191.448 165.0 191.0 164.552 191.0 164.0 C
191.0 164.0 L
191.0 162.0 L
191.0 161.448 191.448 161.0 192.0 161.0 C
192.552 161.0 193.0 161.448 193.0 162.0 C
P
193.0 172.0 M
193.0 172.0 L
193.0 174.0 L
193.0 174.552 192.552 175.0 192.0 175.0 C
191.448 175.0 191.0 174.552 191.0 174.0 C
191.0 174.0 L
191.0 172.0 L
191.0 171.448 191.448 171.0 192.0 171.0 C
192.552 171.0 193.0 171.448 193.0 172.0 C
P
193.0 182.0 M
193.0 182.0 L
193.0 184.0 L
193.0 184.552 192.552 185.0 192.0 185.0 C
191.448 185.0 191.0 184.552 191.0 184.0 C
191.0 184.0 L
191.0 182.0 L
191.0 181.448 191.448 181.0 192.0 181.0 C
192.552 181.0 193.0 181.448 193.0 182.0 C
P
193.0 32.0 M
193.0 32.0 L
193.0 34.0 L
193.0 34.552 192.552 35.0 192.0 35.0 C
191.448 35.0 191.0 34.552 191.0 34.0 C
191.0 34.0 L
191.0 32.0 L
191.0 31.448 191.448 31.0 192.0 31.0 C
192.552 31.0 193.0 31.448 193.0 32.0 C
P
G
WC
WF
R N
N
80.447 79.106 M
80.447 79.106 L
144.447 111.106 L
145.342 111.553 L
144.447 113.342 L
143.553 112.894 L
79.553 80.894 L
78.658 80.447 L
79.553 78.658 L
P
G
WC
WF
R N
N
114.981 97.491 M
107.826 96.894 L
110.211 95.106 L
110.211 92.124 L
P
G
WC
WF
R N
N
114.94 97.989 M
114.94 97.989 L
107.784 97.393 L
106.474 97.283 L
107.526 96.494 L
109.911 94.706 L
110.211 95.106 L
109.711 95.106 L
109.711 92.124 L
109.711 90.809 L
110.585 91.792 L
115.355 97.159 L
116.186 98.093 L
114.94 97.989 L
115.023 96.992 M
114.981 97.491 L
114.608 97.823 L
109.837 92.456 L
110.211 92.124 L
110.711 92.124 L
110.711 95.106 L
110.711 95.356 L
110.511 95.506 L
108.126 97.294 L
107.826 96.894 L
107.868 96.396 L
115.023 96.992 L
P
G
WC
WF
R N
N
144.447 112.894 M
144.447 112.894 L
80.447 144.894 L
79.553 145.342 L
78.658 143.553 L
79.553 143.106 L
143.553 111.106 L
144.447 110.658 L
145.342 112.447 L
P
G
WC
WF
R N
N
109.019 129.491 M
113.789 124.124 L
113.789 127.106 L
116.174 128.894 L
P
G
WC
WF
R N
N
108.645 129.159 M
108.645 129.159 L
113.415 123.792 L
114.289 122.809 L
114.289 124.124 L
114.289 127.106 L
113.789 127.106 L
114.089 126.706 L
116.474 128.494 L
117.526 129.283 L
116.216 129.393 L
109.06 129.989 L
107.814 130.093 L
108.645 129.159 L
109.392 129.823 M
109.019 129.491 L
108.977 128.992 L
116.132 128.396 L
116.174 128.894 L
115.874 129.294 L
113.489 127.506 L
113.289 127.356 L
113.289 127.106 L
113.289 124.124 L
113.789 124.124 L
114.163 124.456 L
109.392 129.823 L
P
G
WC
WF
R N
N
79.0 144.0 M
79.0 144.0 L
79.0 80.0 L
79.0 79.0 L
81.0 79.0 L
81.0 80.0 L
81.0 144.0 L
81.0 145.0 L
79.0 145.0 L
P
G
WC
WF
R N
N
80.0 108.667 M
82.667 115.333 L
80.0 114.0 L
77.333 115.333 L
P
G
WC
WF
R N
N
80.464 108.481 M
80.464 108.481 L
83.131 115.148 L
83.619 116.369 L
82.443 115.781 L
79.776 114.447 L
80.0 114.0 L
80.224 114.447 L
77.557 115.781 L
76.381 116.369 L
76.869 115.148 L
79.536 108.481 L
80.0 107.32 L
80.464 108.481 L
79.536 108.852 M
80.0 108.667 L
80.464 108.852 L
77.798 115.519 L
77.333 115.333 L
77.11 114.886 L
79.776 113.553 L
80.0 113.441 L
80.224 113.553 L
82.89 114.886 L
82.667 115.333 L
82.202 115.519 L
79.536 108.852 L
P
G
WC
WF
R N
N
320.0 79.0 M
320.0 79.0 L
368.0 79.0 L
369.0 79.0 L
369.0 81.0 L
368.0 81.0 L
320.0 81.0 L
319.0 81.0 L
319.0 79.0 L
P
G
WC
WF
R N
N
347.333 80.0 M
340.667 82.667 L
342.0 80.0 L
340.667 77.333 L
P
G
WC
WF
R N
N
347.519 80.464 M
347.519 80.464 L
340.852 83.131 L
339.631 83.619 L
340.219 82.443 L
341.553 79.776 L
342.0 80.0 L
341.553 80.224 L
340.219 77.557 L
339.631 76.381 L
340.852 76.869 L
347.519 79.536 L
348.68 80.0 L
347.519 80.464 L
347.148 79.536 M
347.333 80.0 L
347.148 80.464 L
340.481 77.798 L
340.667 77.333 L
341.114 77.11 L
342.447 79.776 L
342.559 80.0 L
342.447 80.224 L
341.114 82.89 L
340.667 82.667 L
340.481 82.202 L
347.148 79.536 L
P
G
WC
WF
R N
N
369.0 80.0 M
369.0 80.0 L
369.0 144.0 L
369.0 145.0 L
367.0 145.0 L
367.0 144.0 L
367.0 80.0 L
367.0 79.0 L
369.0 79.0 L
P
G
WC
WF
R N
N
368.0 115.333 M
365.333 108.667 L
368.0 110.0 L
370.667 108.667 L
P
G
WC
WF
R N
N
367.536 115.519 M
367.536 115.519 L
364.869 108.852 L
364.381 107.631 L
365.557 108.219 L
368.224 109.553 L
368.0 110.0 L
367.776 109.553 L
370.443 108.219 L
371.619 107.631 L
371.131 108.852 L
368.464 115.519 L
368.0 116.68 L
367.536 115.519 L
368.464 115.148 M
368.0 115.333 L
367.536 115.148 L
370.202 108.481 L
370.667 108.667 L
370.89 109.114 L
368.224 110.447 L
368.0 110.559 L
367.776 110.447 L
365.11 109.114 L
365.333 108.667 L
365.798 108.481 L
368.464 115.148 L
P
G
WC
WF
R N
N
368.0 145.0 M
368.0 145.0 L
320.0 145.0 L
319.0 145.0 L
319.0 143.0 L
320.0 143.0 L
368.0 143.0 L
369.0 143.0 L
369.0 145.0 L
P
G
WC
WF
R N
N
340.667 144.0 M
347.333 141.333 L
346.0 144.0 L
347.333 146.667 L
P
G
WC
WF
R N
N
340.481 143.536 M
340.481 143.536 L
347.148 140.869 L
348.369 140.381 L
347.781 141.557 L
346.447 144.224 L
346.0 144.0 L
346.447 143.776 L
347.781 146.443 L
348.369 147.619 L
347.148 147.131 L
340.481 144.464 L
339.32 144.0 L
340.481 143.536 L
340.852 144.464 M
340.667 144.0 L
340.852 143.536 L
347.519 146.202 L
347.333 146.667 L
346.886 146.89 L
345.553 144.224 L
345.441 144.0 L
345.553 143.776 L
346.886 141.11 L
347.333 141.333 L
347.519 141.798 L
340.852 144.464 L
P
G
WC
WF
R N
R
G
[4.1666665 0.0 0.0 4.1666665 300.0 300.0] concat
N
0.0 -1.4210855E-14 M
468.0 -1.4210855E-14 L
468.0 648.0 L
0.0 648.0 L
0.0 -1.4210855E-14 L
P
WC
18.0 19 F
<74> 7.0 96.0 112.0 S
N
319.0 144.0 M
319.0 144.0 L
319.0 80.0 L
319.0 79.0 L
321.0 79.0 L
321.0 80.0 L
321.0 144.0 L
321.0 145.0 L
319.0 145.0 L
P
G
WC
WF
R N
N
320.0 108.667 M
322.667 115.333 L
320.0 114.0 L
317.333 115.333 L
P
G
WC
WF
R N
N
320.464 108.481 M
320.464 108.481 L
323.131 115.148 L
323.619 116.369 L
322.443 115.781 L
319.776 114.447 L
320.0 114.0 L
320.224 114.447 L
317.557 115.781 L
316.381 116.369 L
316.869 115.148 L
319.536 108.481 L
320.0 107.32 L
320.464 108.481 L
319.536 108.852 M
320.0 108.667 L
320.464 108.852 L
317.798 115.519 L
317.333 115.333 L
317.11 114.886 L
319.776 113.553 L
320.0 113.441 L
320.224 113.553 L
322.89 114.886 L
322.667 115.333 L
322.202 115.519 L
319.536 108.852 L
P
G
WC
WF
R N
N
255.005 112.101 M
255.005 112.101 L
254.522 107.327 254.278 103.506 256.091 102.455 C
256.091 102.455 L
256.162 102.415 256.235 102.378 256.31 102.346 C
256.31 102.346 L
256.507 102.262 256.711 102.213 256.917 102.192 C
256.917 102.192 L
258.725 102.009 261.333 104.184 264.678 107.264 C
264.0 108.0 L
264.678 107.264 L
268.891 111.146 270.499 111.987 270.907 111.814 C
270.907 111.814 L
270.907 111.814 270.907 111.814 270.907 111.814 C
270.907 111.814 L
270.905 111.815 270.912 111.812 270.926 111.796 C
270.926 111.796 L
271.385 111.298 271.518 109.174 271.005 104.101 C
272.0 104.0 L
271.005 104.101 L
270.522 99.327 270.278 95.506 272.091 94.455 C
272.091 94.455 L
272.162 94.415 272.235 94.378 272.31 94.346 C
272.31 94.346 L
272.507 94.262 272.711 94.213 272.917 94.192 C
272.917 94.192 L
274.725 94.009 277.333 96.184 280.678 99.264 C
280.0 100.0 L
280.678 99.264 L
284.891 103.146 286.499 103.987 286.907 103.814 C
286.907 103.814 L
286.907 103.814 286.907 103.814 286.907 103.814 C
286.907 103.814 L
286.905 103.815 286.912 103.812 286.926 103.796 C
286.926 103.796 L
287.385 103.298 287.518 101.174 287.005 96.101 C
288.0 96.0 L
287.005 96.101 L
286.522 91.327 286.278 87.506 288.091 86.455 C
288.091 86.455 L
288.162 86.415 288.235 86.378 288.31 86.346 C
288.31 86.346 L
288.507 86.262 288.711 86.213 288.917 86.192 C
288.917 86.192 L
290.725 86.009 293.333 88.184 296.678 91.264 C
296.0 92.0 L
296.678 91.264 L
300.891 95.146 302.499 95.987 302.907 95.814 C
302.907 95.814 L
302.907 95.814 302.907 95.814 302.907 95.814 C
302.907 95.814 L
302.905 95.815 302.912 95.812 302.926 95.796 C
302.926 95.796 L
303.385 95.298 303.518 93.174 303.005 88.101 C
304.0 88.0 L
303.005 88.101 L
302.522 83.327 302.278 79.506 304.091 78.455 C
304.091 78.455 L
304.162 78.415 304.235 78.378 304.31 78.346 C
304.31 78.346 L
304.507 78.262 304.711 78.213 304.917 78.192 C
304.917 78.192 L
306.725 78.009 309.333 80.184 312.678 83.264 C
312.0 84.0 L
312.678 83.264 L
316.891 87.146 318.499 87.987 318.907 87.814 C
318.907 87.814 L
318.907 87.814 318.907 87.814 318.907 87.814 C
318.907 87.814 L
318.905 87.815 318.912 87.812 318.926 87.796 C
318.926 87.796 L
319.385 87.298 319.518 85.174 319.005 80.101 C
318.904 79.106 L
320.894 78.904 L
320.995 79.899 L
321.453 84.424 321.628 87.815 320.397 89.151 C
320.397 89.151 L
320.257 89.304 320.094 89.437 319.909 89.545 C
319.909 89.545 L
319.838 89.586 319.765 89.622 319.69 89.654 C
319.69 89.654 L
317.762 90.474 314.852 87.986 311.323 84.736 C
311.323 84.736 L
311.323 84.736 L
307.572 81.281 305.792 80.113 305.118 80.182 C
305.118 80.182 L
305.098 80.184 305.091 80.187 305.093 80.186 C
305.093 80.186 L
305.093 80.186 305.093 80.186 305.093 80.186 C
305.093 80.186 L
304.71 80.408 304.418 82.2 304.995 87.899 C
304.995 87.899 L
305.453 92.424 305.628 95.815 304.397 97.151 C
304.397 97.151 L
304.257 97.304 304.094 97.437 303.909 97.545 C
303.909 97.545 L
303.838 97.586 303.765 97.622 303.69 97.654 C
303.69 97.654 L
301.762 98.474 298.852 95.986 295.323 92.736 C
295.323 92.736 L
291.572 89.281 289.792 88.113 289.118 88.182 C
289.118 88.182 L
289.098 88.184 289.091 88.187 289.093 88.186 C
289.093 88.186 L
289.093 88.186 289.093 88.186 289.093 88.186 C
289.093 88.186 L
288.71 88.408 288.418 90.2 288.995 95.899 C
288.995 95.899 L
289.453 100.424 289.628 103.815 288.397 105.151 C
288.397 105.151 L
288.257 105.304 288.094 105.437 287.909 105.545 C
287.909 105.545 L
287.838 105.586 287.765 105.622 287.69 105.654 C
287.69 105.654 L
285.762 106.474 282.852 103.986 279.323 100.736 C
279.323 100.736 L
275.572 97.281 273.792 96.113 273.118 96.182 C
273.118 96.182 L
273.098 96.184 273.091 96.187 273.093 96.186 C
273.093 96.186 L
273.093 96.186 273.093 96.186 273.093 96.186 C
273.093 96.186 L
272.71 96.408 272.418 98.2 272.995 103.899 C
272.995 103.899 L
273.453 108.424 273.628 111.815 272.397 113.151 C
272.397 113.151 L
272.257 113.304 272.094 113.437 271.909 113.545 C
271.909 113.545 L
271.838 113.586 271.765 113.622 271.69 113.654 C
271.69 113.654 L
269.762 114.474 266.852 111.986 263.323 108.736 C
263.323 108.736 L
259.572 105.281 257.792 104.113 257.118 104.182 C
257.118 104.182 L
257.098 104.184 257.091 104.187 257.093 104.186 C
257.093 104.186 L
257.093 104.186 257.093 104.186 257.093 104.186 C
257.093 104.186 L
256.71 104.408 256.418 106.2 256.995 111.899 C
257.096 112.894 L
255.106 113.096 L
P
G
WC
WF
R N
N
255.323 111.264 M
255.323 111.264 L
258.852 108.014 261.762 105.526 263.69 106.346 C
263.69 106.346 L
263.765 106.378 263.838 106.415 263.909 106.455 C
263.909 106.455 L
264.094 106.563 264.257 106.696 264.397 106.849 C
264.397 106.849 L
265.628 108.185 265.453 111.576 264.995 116.101 C
264.0 116.0 L
264.995 116.101 L
264.418 121.8 264.71 123.592 265.093 123.814 C
265.093 123.814 L
265.093 123.814 265.093 123.814 265.093 123.814 C
265.093 123.814 L
265.091 123.813 265.098 123.816 265.118 123.818 C
265.118 123.818 L
265.792 123.887 267.572 122.719 271.323 119.264 C
272.0 120.0 L
271.323 119.264 L
274.852 116.014 277.762 113.526 279.69 114.346 C
279.69 114.346 L
279.765 114.378 279.838 114.415 279.909 114.455 C
279.909 114.455 L
280.094 114.563 280.257 114.696 280.397 114.849 C
280.397 114.849 L
281.628 116.185 281.453 119.576 280.995 124.101 C
280.0 124.0 L
280.995 124.101 L
280.418 129.8 280.71 131.592 281.093 131.814 C
281.093 131.814 L
281.093 131.814 281.093 131.814 281.093 131.814 C
281.093 131.814 L
281.091 131.813 281.098 131.816 281.118 131.818 C
281.118 131.818 L
281.792 131.887 283.572 130.719 287.323 127.264 C
288.0 128.0 L
287.323 127.264 L
290.852 124.014 293.762 121.526 295.69 122.346 C
295.69 122.346 L
295.765 122.378 295.838 122.415 295.909 122.455 C
295.909 122.455 L
296.094 122.563 296.257 122.696 296.397 122.849 C
296.397 122.849 L
297.628 124.185 297.453 127.576 296.995 132.101 C
296.0 132.0 L
296.995 132.101 L
296.418 137.8 296.71 139.592 297.093 139.814 C
297.093 139.814 L
297.093 139.814 297.093 139.814 297.093 139.814 C
297.093 139.814 L
297.091 139.813 297.098 139.816 297.118 139.818 C
297.118 139.818 L
297.792 139.887 299.572 138.719 303.323 135.264 C
304.0 136.0 L
303.323 135.264 L
306.852 132.014 309.762 129.526 311.69 130.346 C
311.69 130.346 L
311.765 130.378 311.838 130.415 311.909 130.455 C
311.909 130.455 L
312.094 130.563 312.257 130.696 312.397 130.849 C
312.397 130.849 L
313.628 132.185 313.453 135.576 312.995 140.101 C
312.0 140.0 L
312.995 140.101 L
312.418 145.8 312.71 147.592 313.093 147.814 C
313.093 147.814 L
313.093 147.814 313.093 147.814 313.093 147.814 C
313.093 147.814 L
313.091 147.813 313.098 147.816 313.118 147.818 C
313.118 147.818 L
313.792 147.887 315.572 146.719 319.323 143.264 C
320.058 142.587 L
321.413 144.058 L
320.678 144.736 L
317.333 147.816 314.725 149.991 312.917 149.808 C
312.917 149.808 L
312.711 149.787 312.507 149.738 312.31 149.654 C
312.31 149.654 L
312.235 149.622 312.162 149.586 312.091 149.545 C
312.091 149.545 L
310.278 148.494 310.522 144.673 311.005 139.899 C
311.005 139.899 L
311.518 134.826 311.385 132.702 310.926 132.204 C
310.926 132.204 L
310.912 132.188 310.905 132.185 310.907 132.186 C
310.907 132.186 L
310.907 132.186 310.907 132.186 310.907 132.186 C
310.907 132.186 L
310.499 132.013 308.891 132.854 304.678 136.736 C
304.678 136.736 L
301.333 139.816 298.725 141.991 296.917 141.808 C
296.917 141.808 L
296.711 141.787 296.507 141.738 296.31 141.654 C
296.31 141.654 L
296.235 141.622 296.162 141.586 296.091 141.545 C
296.091 141.545 L
294.278 140.494 294.522 136.673 295.005 131.899 C
295.005 131.899 L
295.518 126.826 295.385 124.702 294.926 124.204 C
294.926 124.204 L
294.912 124.188 294.905 124.185 294.907 124.186 C
294.907 124.186 L
294.907 124.186 294.907 124.186 294.907 124.186 C
294.907 124.186 L
294.499 124.013 292.891 124.854 288.678 128.736 C
288.678 128.736 L
288.678 128.736 L
285.333 131.816 282.725 133.991 280.917 133.808 C
280.917 133.808 L
280.711 133.787 280.507 133.738 280.31 133.654 C
280.31 133.654 L
280.235 133.622 280.162 133.586 280.091 133.545 C
280.091 133.545 L
278.278 132.494 278.522 128.673 279.005 123.899 C
279.005 123.899 L
279.518 118.826 279.385 116.702 278.926 116.204 C
278.926 116.204 L
278.912 116.188 278.905 116.185 278.907 116.186 C
278.907 116.186 L
278.907 116.186 278.907 116.186 278.907 116.186 C
278.907 116.186 L
278.499 116.013 276.891 116.854 272.678 120.736 C
272.678 120.736 L
269.333 123.816 266.725 125.991 264.917 125.808 C
264.917 125.808 L
264.711 125.787 264.507 125.738 264.31 125.654 C
264.31 125.654 L
264.235 125.622 264.162 125.586 264.091 125.545 C
264.091 125.545 L
262.278 124.494 262.522 120.673 263.005 115.899 C
263.005 115.899 L
263.518 110.826 263.385 108.702 262.926 108.204 C
262.926 108.204 L
262.912 108.188 262.905 108.185 262.907 108.186 C
262.907 108.186 L
262.907 108.186 262.907 108.186 262.907 108.186 C
262.907 108.186 L
262.499 108.013 260.891 108.854 256.677 112.736 C
255.942 113.413 L
254.587 111.942 L
P
G
WC
WF
R N
R
G
[4.1666665 0.0 0.0 4.1666665 300.0 300.0] concat
N
0.0 -2.842171E-14 M
468.0 -2.842171E-14 L
468.0 648.0 L
0.0 648.0 L
0.0 -2.842171E-14 L
P
WC
18.0 19 F
<57> 15.0 272.0 80.0 S
18.0 19 F
<57> 15.0 272.0 160.0 S
pgSave restore
showpage
%%EOF
