%!PS-Adobe-3.0 EPSF-3.0
%%BoundingBox: 116 524 415 692
%%Creator: berni with JaxoDraw-2.1-0
%%Title: 
%%CreationDate: 27/3/2020
%%BeginProlog
/imStr 0 def /imageSrc {currentfile /ASCII85Decode filter /RunLengthDecode filter  imStr readstring pop } def
/BD {bind def} bind def
/D {def} BD
/C {curveto} BD
/L {lineto} BD
/M {moveto} BD
/R {grestore} BD
/G {gsave} BD
/N {newpath} BD
/P {closepath} BD
/EC {eoclip} BD
/WC {clip} BD
/EF {eofill} BD
/WF {fill} BD
/SG {setgray} BD
/SC {setrgbcolor} BD
/ISOF {
     dup findfont dup length 1 add dict begin {
             1 index /FID eq {pop pop} {D} ifelse
     } forall /Encoding ISOLatin1Encoding D
     currentdict end definefont
} BD
/NZ {dup 1 lt {pop 1} if} BD
/S {
     moveto 1 index stringwidth pop NZ sub
     1 index length 1 sub NZ div 0
     3 2 roll ashow newpath} BD
/FL [
    /AvantGarde-Book ISOF
    /AvantGarde-BookOblique ISOF
    /AvantGarde-Demi ISOF
    /AvantGarde-DemiOblique ISOF
    /Bookman-Demi ISOF
    /Bookman-DemiItalic ISOF
    /Bookman-Light ISOF
    /Bookman-LightItalic ISOF
    /Courier ISOF
    /Courier-Bold ISOF
    /Courier-BoldOblique ISOF
    /Courier-Oblique ISOF
    /Helvetica ISOF
    /Helvetica-Bold ISOF
    /Helvetica-BoldOblique ISOF
    /Helvetica-Narrow ISOF
    /Helvetica-Narrow-Bold ISOF
    /Helvetica-Narrow-BoldOblique ISOF
    /Helvetica-Narrow-Oblique ISOF
    /Helvetica-Oblique ISOF
    /NewCenturySchlbk-Bold ISOF
    /NewCenturySchlbk-BoldItalic ISOF
    /NewCenturySchlbk-Italic ISOF
    /NewCenturySchlbk-Roman ISOF
    /Palatino-Bold ISOF
    /Palatino-BoldItalic ISOF
    /Palatino-Italic ISOF
    /Palatino-Roman ISOF
    /Symbol findfont
    /Times-Bold ISOF
    /Times-BoldItalic ISOF
    /Times-Italic ISOF
    /Times-Roman ISOF
    /ZapfDingbats findfont
    /ZapfChancery-MediumItalic ISOF
] D
/F {
     FL exch get exch scalefont
     [1 0 0 -1 0 0] makefont setfont} BD
%%EndProlog
%%BeginSetup
<< /PageSize [612.0 792.0] /DeferredMediaSelection true /ImagingBBox null /ManualFeed false /NumCopies 1 >> pop 
%%EndSetup
%%Page: 1 1
/pgSave save def
792.0 0 exch translate 1 -1 scale[72 300.0 div 0 0 72 300.0 div 0 0]concat
G
[4.1666665 0.0 0.0 4.1666665 300.0 300.0] concat
N
0.0 0.0 M
468.0 0.0 L
468.0 648.0 L
0.0 648.0 L
0.0 0.0 L
P
WC
N
144.0 113.0 M
144.0 113.0 L
256.0 113.0 L
257.0 113.0 L
257.0 115.0 L
256.0 115.0 L
144.0 115.0 L
143.0 115.0 L
143.0 113.0 L
P
144.0 109.0 M
144.0 109.0 L
256.0 109.0 L
257.0 109.0 L
257.0 111.0 L
256.0 111.0 L
144.0 111.0 L
143.0 111.0 L
143.0 109.0 L
P
G
WC
WF
R N
N
47.556 31.104 M
47.556 31.104 L
51.054 29.369 55.958 28.614 58.806 32.885 C
57.974 33.44 L
58.806 32.885 L
62.145 37.894 59.314 42.923 55.694 45.336 C
55.694 45.336 L
52.751 47.299 48.457 48.01 46.261 44.715 C
47.093 44.16 L
46.261 44.715 L
44.171 41.58 46.167 38.07 48.994 36.185 C
48.994 36.185 L
52.829 33.628 59.071 33.282 63.072 39.285 C
63.072 39.285 L
63.072 39.285 L
67.074 45.288 64.354 50.916 60.519 53.473 C
60.519 53.473 L
57.692 55.357 53.684 55.85 51.594 52.715 C
51.594 52.715 L
51.594 52.715 L
49.504 49.58 51.5 46.07 54.327 44.185 C
54.327 44.185 L
58.162 41.628 64.404 41.282 68.406 47.285 C
68.406 47.285 L
68.406 47.285 L
72.408 53.288 69.688 58.916 65.852 61.473 C
65.852 61.473 L
63.026 63.357 59.018 63.85 56.928 60.715 C
57.76 60.16 L
56.928 60.715 L
54.838 57.58 56.834 54.07 59.661 52.185 C
59.661 52.185 L
63.496 49.628 69.737 49.282 73.739 55.285 C
72.907 55.84 L
73.739 55.285 L
77.741 61.288 75.021 66.916 71.186 69.473 C
71.186 69.473 L
68.359 71.357 64.351 71.85 62.261 68.715 C
63.093 68.16 L
62.261 68.715 L
60.171 65.58 62.167 62.07 64.994 60.185 C
64.994 60.185 L
68.829 57.628 75.071 57.282 79.072 63.285 C
79.072 63.285 L
79.072 63.285 L
83.074 69.288 80.354 74.916 76.519 77.473 C
76.519 77.473 L
73.692 79.357 69.684 79.85 67.594 76.715 C
68.426 76.16 L
67.594 76.715 L
65.398 73.42 67.705 69.731 70.649 67.768 C
70.649 67.768 L
74.269 65.355 80.0 64.677 83.339 69.685 C
83.339 69.685 L
83.339 69.685 L
86.187 73.956 83.603 78.193 80.656 80.755 C
79.901 81.411 L
78.589 79.901 L
79.344 79.245 L
82.104 76.846 83.627 73.723 81.675 70.794 C
82.507 70.24 L
81.675 70.794 L
79.196 67.075 74.879 67.352 71.758 69.432 C
71.758 69.432 L
69.06 71.231 68.043 73.782 69.258 75.606 C
69.258 75.606 L
69.258 75.606 L
70.412 77.336 72.927 77.464 75.41 75.809 C
75.41 75.809 L
78.523 73.734 80.674 69.293 77.408 64.394 C
78.24 63.84 L
77.408 64.394 L
74.143 59.496 69.216 59.774 66.103 61.849 C
66.103 61.849 L
63.62 63.505 62.771 65.875 63.925 67.606 C
63.925 67.606 L
63.925 67.606 L
65.079 69.336 67.593 69.464 70.076 67.809 C
70.076 67.809 L
73.189 65.734 75.341 61.293 72.075 56.394 C
72.075 56.394 L
72.075 56.394 L
68.809 51.496 63.883 51.774 60.77 53.849 C
60.77 53.849 L
58.287 55.505 57.438 57.875 58.592 59.606 C
58.592 59.606 L
58.592 59.606 L
59.746 61.336 62.26 61.464 64.743 59.809 C
64.743 59.809 L
67.856 57.734 70.007 53.293 66.742 48.394 C
67.574 47.84 L
66.742 48.394 L
63.476 43.496 58.549 43.774 55.437 45.849 C
55.437 45.849 L
52.954 47.505 52.104 49.875 53.258 51.606 C
52.426 52.16 L
53.258 51.606 L
54.412 53.336 56.927 53.464 59.41 51.809 C
59.41 51.809 L
62.523 49.734 64.674 45.293 61.408 40.394 C
62.24 39.84 L
61.408 40.394 L
58.143 35.496 53.216 35.774 50.103 37.849 C
50.103 37.849 L
47.62 39.505 46.771 41.875 47.925 43.606 C
47.925 43.606 L
47.925 43.606 L
49.141 45.429 51.887 45.471 54.585 43.672 C
54.585 43.672 L
57.706 41.592 59.621 37.714 57.142 33.994 C
57.142 33.994 L
57.142 33.994 L
55.189 31.066 51.72 31.271 48.444 32.896 C
47.549 33.34 L
46.66 31.549 L
P
G
WC
WF
R N
N
80.656 143.245 M
80.656 143.245 L
83.603 145.807 86.187 150.044 83.339 154.315 C
83.339 154.315 L
83.339 154.315 L
80.0 159.323 74.269 158.645 70.649 156.232 C
70.649 156.232 L
67.705 154.269 65.398 150.58 67.594 147.285 C
68.426 147.84 L
67.594 147.285 L
69.684 144.15 73.692 144.643 76.519 146.527 C
76.519 146.527 L
80.354 149.084 83.074 154.712 79.072 160.715 C
78.24 160.16 L
79.072 160.715 L
75.071 166.718 68.829 166.372 64.994 163.815 C
64.994 163.815 L
62.167 161.93 60.171 158.42 62.261 155.285 C
63.093 155.84 L
62.261 155.285 L
64.351 152.15 68.359 152.643 71.186 154.527 C
71.186 154.527 L
75.021 157.084 77.741 162.712 73.739 168.715 C
72.907 168.16 L
73.739 168.715 L
69.737 174.718 63.496 174.372 59.661 171.815 C
59.661 171.815 L
56.834 169.93 54.838 166.42 56.928 163.285 C
57.76 163.84 L
56.928 163.285 L
59.018 160.15 63.026 160.643 65.852 162.527 C
65.852 162.527 L
69.688 165.084 72.408 170.712 68.406 176.715 C
67.574 176.16 L
68.406 176.715 L
64.404 182.718 58.162 182.372 54.327 179.815 C
54.327 179.815 L
51.5 177.93 49.504 174.42 51.594 171.285 C
52.426 171.84 L
51.594 171.285 L
53.684 168.15 57.692 168.643 60.519 170.527 C
60.519 170.527 L
64.354 173.084 67.074 178.712 63.072 184.715 C
62.24 184.16 L
63.072 184.715 L
59.071 190.718 52.829 190.372 48.994 187.815 C
48.994 187.815 L
46.167 185.93 44.171 182.42 46.261 179.285 C
47.093 179.84 L
46.261 179.285 L
48.457 175.99 52.751 176.701 55.694 178.664 C
55.694 178.664 L
59.314 181.077 62.145 186.107 58.806 191.115 C
58.806 191.115 L
58.806 191.115 L
55.958 195.386 51.054 194.631 47.556 192.896 C
46.66 192.451 L
47.549 190.66 L
48.444 191.104 L
51.72 192.729 55.189 192.934 57.142 190.006 C
57.974 190.56 L
57.142 190.006 L
59.621 186.286 57.706 182.408 54.585 180.328 C
54.585 180.328 L
51.887 178.529 49.141 178.571 47.925 180.394 C
47.925 180.394 L
46.771 182.125 47.62 184.495 50.103 186.151 C
50.103 186.151 L
53.216 188.226 58.143 188.504 61.408 183.606 C
61.408 183.606 L
61.408 183.606 L
64.674 178.707 62.523 174.266 59.41 172.191 C
59.41 172.191 L
56.927 170.536 54.412 170.664 53.258 172.394 C
53.258 172.394 L
53.258 172.394 L
52.104 174.125 52.954 176.495 55.437 178.151 C
55.437 178.151 L
58.549 180.226 63.476 180.504 66.742 175.606 C
66.742 175.606 L
66.742 175.606 L
70.007 170.707 67.856 166.266 64.743 164.191 C
64.743 164.191 L
62.26 162.536 59.746 162.664 58.592 164.394 C
58.592 164.394 L
58.592 164.394 L
57.438 166.125 58.287 168.495 60.77 170.151 C
60.77 170.151 L
63.883 172.226 68.809 172.504 72.075 167.606 C
72.075 167.606 L
72.075 167.606 L
75.341 162.707 73.189 158.266 70.076 156.191 C
70.076 156.191 L
67.593 154.536 65.079 154.664 63.925 156.394 C
63.925 156.394 L
63.925 156.394 L
62.771 158.125 63.62 160.495 66.103 162.151 C
66.103 162.151 L
69.216 164.226 74.143 164.504 77.408 159.606 C
77.408 159.606 L
77.408 159.606 L
80.674 154.707 78.523 150.266 75.41 148.191 C
75.41 148.191 L
72.927 146.536 70.412 146.664 69.258 148.394 C
69.258 148.394 L
69.258 148.394 L
68.043 150.218 69.06 152.769 71.758 154.568 C
71.758 154.568 L
74.879 156.648 79.196 156.925 81.675 153.206 C
82.507 153.76 L
81.675 153.206 L
83.627 150.277 82.104 147.154 79.344 144.755 C
78.589 144.099 L
79.901 142.589 L
P
G
WC
WF
R N
N
303.344 80.755 M
303.344 80.755 L
300.397 78.193 297.813 73.956 300.661 69.685 C
300.661 69.685 L
300.661 69.685 L
304.0 64.677 309.731 65.355 313.351 67.768 C
313.351 67.768 L
316.295 69.731 318.602 73.42 316.406 76.715 C
315.574 76.16 L
316.406 76.715 L
314.316 79.85 310.308 79.357 307.481 77.473 C
307.481 77.473 L
303.646 74.916 300.926 69.288 304.928 63.285 C
305.76 63.84 L
304.928 63.285 L
308.929 57.282 315.171 57.628 319.006 60.185 C
319.006 60.185 L
321.833 62.07 323.829 65.58 321.739 68.715 C
320.907 68.16 L
321.739 68.715 L
319.649 71.85 315.641 71.357 312.814 69.473 C
312.814 69.473 L
308.979 66.916 306.259 61.288 310.261 55.285 C
311.093 55.84 L
310.261 55.285 L
314.263 49.282 320.504 49.628 324.339 52.185 C
324.339 52.185 L
327.166 54.07 329.162 57.58 327.072 60.715 C
327.072 60.715 L
327.072 60.715 L
324.982 63.85 320.974 63.357 318.148 61.473 C
318.148 61.473 L
314.312 58.916 311.592 53.288 315.594 47.285 C
316.426 47.84 L
315.594 47.285 L
319.596 41.282 325.838 41.628 329.673 44.185 C
329.673 44.185 L
332.5 46.07 334.496 49.58 332.406 52.715 C
331.574 52.16 L
332.406 52.715 L
330.316 55.85 326.308 55.357 323.481 53.473 C
323.481 53.473 L
319.646 50.916 316.926 45.288 320.928 39.285 C
320.928 39.285 L
320.928 39.285 L
324.929 33.282 331.171 33.628 335.006 36.185 C
335.006 36.185 L
337.833 38.07 339.829 41.58 337.739 44.715 C
337.739 44.715 L
337.739 44.715 L
335.543 48.01 331.249 47.299 328.306 45.336 C
328.306 45.336 L
324.686 42.923 321.855 37.893 325.194 32.885 C
325.194 32.885 L
325.194 32.885 L
328.042 28.614 332.947 29.369 336.444 31.104 C
337.34 31.549 L
336.451 33.34 L
335.556 32.896 L
332.28 31.271 328.811 31.066 326.858 33.994 C
326.026 33.44 L
326.858 33.994 L
324.379 37.714 326.294 41.592 329.415 43.672 C
329.415 43.672 L
332.113 45.471 334.859 45.429 336.075 43.606 C
336.907 44.16 L
336.075 43.606 L
337.229 41.875 336.38 39.505 333.897 37.849 C
333.897 37.849 L
330.784 35.774 325.857 35.496 322.592 40.394 C
321.76 39.84 L
322.592 40.394 L
319.326 45.293 321.477 49.734 324.59 51.809 C
324.59 51.809 L
327.073 53.464 329.588 53.336 330.742 51.606 C
330.742 51.606 L
330.742 51.606 L
331.896 49.875 331.046 47.505 328.563 45.849 C
328.563 45.849 L
325.451 43.774 320.524 43.496 317.258 48.394 C
317.258 48.394 L
317.258 48.394 L
313.993 53.293 316.144 57.734 319.257 59.809 C
319.257 59.809 L
321.74 61.464 324.254 61.336 325.408 59.606 C
326.24 60.16 L
325.408 59.606 L
326.562 57.875 325.713 55.505 323.23 53.849 C
323.23 53.849 L
320.117 51.774 315.191 51.496 311.925 56.394 C
311.925 56.394 L
311.925 56.394 L
308.659 61.293 310.811 65.734 313.924 67.809 C
313.924 67.809 L
316.407 69.464 318.921 69.336 320.075 67.606 C
320.075 67.606 L
320.075 67.606 L
321.229 65.875 320.38 63.505 317.897 61.849 C
317.897 61.849 L
314.784 59.774 309.857 59.496 306.592 64.394 C
306.592 64.394 L
306.592 64.394 L
303.326 69.293 305.477 73.734 308.59 75.809 C
308.59 75.809 L
311.073 77.464 313.588 77.336 314.742 75.606 C
314.742 75.606 L
314.742 75.606 L
315.957 73.782 314.94 71.231 312.242 69.432 C
312.242 69.432 L
309.121 67.352 304.804 67.075 302.325 70.794 C
301.493 70.24 L
302.325 70.794 L
300.373 73.723 301.896 76.846 304.656 79.245 C
305.411 79.901 L
304.099 81.411 L
P
G
WC
WF
R N
N
303.556 143.104 M
303.556 143.104 L
307.054 141.369 311.958 140.614 314.806 144.885 C
314.806 144.885 L
314.806 144.885 L
318.145 149.894 315.314 154.923 311.695 157.336 C
311.695 157.336 L
308.751 159.299 304.457 160.01 302.261 156.715 C
303.093 156.16 L
302.261 156.715 L
300.171 153.58 302.167 150.07 304.994 148.185 C
304.994 148.185 L
308.829 145.628 315.071 145.282 319.072 151.285 C
318.24 151.84 L
319.072 151.285 L
323.074 157.288 320.354 162.916 316.519 165.473 C
316.519 165.473 L
313.692 167.357 309.684 167.85 307.594 164.715 C
308.426 164.16 L
307.594 164.715 L
305.504 161.58 307.5 158.07 310.327 156.185 C
310.327 156.185 L
314.162 153.628 320.404 153.282 324.406 159.285 C
323.574 159.84 L
324.406 159.285 L
328.408 165.288 325.688 170.916 321.852 173.473 C
321.852 173.473 L
319.026 175.357 315.018 175.85 312.928 172.715 C
313.76 172.16 L
312.928 172.715 L
310.838 169.58 312.834 166.07 315.661 164.185 C
315.661 164.185 L
319.496 161.628 325.737 161.282 329.739 167.285 C
328.907 167.84 L
329.739 167.285 L
333.741 173.288 331.021 178.916 327.186 181.473 C
327.186 181.473 L
324.359 183.357 320.351 183.85 318.261 180.715 C
319.093 180.16 L
318.261 180.715 L
316.171 177.58 318.167 174.07 320.994 172.185 C
320.994 172.185 L
324.829 169.628 331.071 169.282 335.072 175.285 C
334.24 175.84 L
335.072 175.285 L
339.074 181.288 336.354 186.916 332.519 189.473 C
332.519 189.473 L
329.692 191.357 325.684 191.85 323.594 188.715 C
324.426 188.16 L
323.594 188.715 L
321.398 185.42 323.705 181.731 326.649 179.768 C
326.649 179.768 L
330.269 177.355 336.0 176.677 339.339 181.685 C
339.339 181.685 L
339.339 181.685 L
342.187 185.956 339.603 190.193 336.656 192.755 C
335.901 193.411 L
334.589 191.901 L
335.344 191.245 L
338.104 188.846 339.627 185.723 337.675 182.794 C
338.507 182.24 L
337.675 182.794 L
335.196 179.075 330.879 179.352 327.758 181.432 C
327.758 181.432 L
325.06 183.231 324.043 185.782 325.258 187.606 C
325.258 187.606 L
325.258 187.606 L
326.412 189.336 328.927 189.464 331.41 187.809 C
331.41 187.809 L
334.523 185.734 336.674 181.293 333.408 176.394 C
333.408 176.394 L
333.408 176.394 L
330.143 171.496 325.216 171.774 322.103 173.849 C
322.103 173.849 L
319.62 175.505 318.771 177.875 319.925 179.606 C
319.925 179.606 L
319.925 179.606 L
321.079 181.336 323.593 181.464 326.076 179.809 C
326.076 179.809 L
329.189 177.734 331.341 173.293 328.075 168.394 C
328.075 168.394 L
328.075 168.394 L
324.809 163.496 319.883 163.774 316.77 165.849 C
316.77 165.849 L
314.287 167.505 313.438 169.875 314.592 171.606 C
314.592 171.606 L
314.592 171.606 L
315.746 173.336 318.26 173.464 320.743 171.809 C
320.743 171.809 L
323.856 169.734 326.007 165.293 322.742 160.394 C
322.742 160.394 L
322.742 160.394 L
319.476 155.496 314.549 155.774 311.437 157.849 C
311.437 157.849 L
308.954 159.505 308.104 161.875 309.258 163.606 C
309.258 163.606 L
309.258 163.606 L
310.412 165.336 312.927 165.464 315.41 163.809 C
315.41 163.809 L
318.523 161.734 320.674 157.293 317.408 152.394 C
317.408 152.394 L
317.408 152.394 L
314.143 147.496 309.216 147.774 306.103 149.849 C
306.103 149.849 L
303.62 151.505 302.771 153.875 303.925 155.606 C
303.925 155.606 L
303.925 155.606 L
305.141 157.429 307.887 157.471 310.585 155.672 C
310.585 155.672 L
313.706 153.592 315.621 149.714 313.142 145.994 C
313.974 145.44 L
313.142 145.994 L
311.189 143.066 307.72 143.271 304.444 144.896 C
303.549 145.34 L
302.66 143.549 L
P
G
WC
WF
R N
N
193.0 42.0 M
193.0 42.0 L
193.0 44.0 L
193.0 44.552 192.552 45.0 192.0 45.0 C
191.448 45.0 191.0 44.552 191.0 44.0 C
191.0 44.0 L
191.0 42.0 L
191.0 41.448 191.448 41.0 192.0 41.0 C
192.552 41.0 193.0 41.448 193.0 42.0 C
P
193.0 52.0 M
193.0 52.0 L
193.0 54.0 L
193.0 54.552 192.552 55.0 192.0 55.0 C
191.448 55.0 191.0 54.552 191.0 54.0 C
191.0 54.0 L
191.0 52.0 L
191.0 51.448 191.448 51.0 192.0 51.0 C
192.552 51.0 193.0 51.448 193.0 52.0 C
P
193.0 62.0 M
193.0 62.0 L
193.0 64.0 L
193.0 64.552 192.552 65.0 192.0 65.0 C
191.448 65.0 191.0 64.552 191.0 64.0 C
191.0 64.0 L
191.0 62.0 L
191.0 61.448 191.448 61.0 192.0 61.0 C
192.552 61.0 193.0 61.448 193.0 62.0 C
P
193.0 72.0 M
193.0 72.0 L
193.0 74.0 L
193.0 74.552 192.552 75.0 192.0 75.0 C
191.448 75.0 191.0 74.552 191.0 74.0 C
191.0 74.0 L
191.0 72.0 L
191.0 71.448 191.448 71.0 192.0 71.0 C
192.552 71.0 193.0 71.448 193.0 72.0 C
P
193.0 82.0 M
193.0 82.0 L
193.0 84.0 L
193.0 84.552 192.552 85.0 192.0 85.0 C
191.448 85.0 191.0 84.552 191.0 84.0 C
191.0 84.0 L
191.0 82.0 L
191.0 81.448 191.448 81.0 192.0 81.0 C
192.552 81.0 193.0 81.448 193.0 82.0 C
P
193.0 92.0 M
193.0 92.0 L
193.0 94.0 L
193.0 94.552 192.552 95.0 192.0 95.0 C
191.448 95.0 191.0 94.552 191.0 94.0 C
191.0 94.0 L
191.0 92.0 L
191.0 91.448 191.448 91.0 192.0 91.0 C
192.552 91.0 193.0 91.448 193.0 92.0 C
P
193.0 102.0 M
193.0 102.0 L
193.0 104.0 L
193.0 104.552 192.552 105.0 192.0 105.0 C
191.448 105.0 191.0 104.552 191.0 104.0 C
191.0 104.0 L
191.0 102.0 L
191.0 101.448 191.448 101.0 192.0 101.0 C
192.552 101.0 193.0 101.448 193.0 102.0 C
P
193.0 112.0 M
193.0 112.0 L
193.0 114.0 L
193.0 114.552 192.552 115.0 192.0 115.0 C
191.448 115.0 191.0 114.552 191.0 114.0 C
191.0 114.0 L
191.0 112.0 L
191.0 111.448 191.448 111.0 192.0 111.0 C
192.552 111.0 193.0 111.448 193.0 112.0 C
P
193.0 122.0 M
193.0 122.0 L
193.0 124.0 L
193.0 124.552 192.552 125.0 192.0 125.0 C
191.448 125.0 191.0 124.552 191.0 124.0 C
191.0 124.0 L
191.0 122.0 L
191.0 121.448 191.448 121.0 192.0 121.0 C
192.552 121.0 193.0 121.448 193.0 122.0 C
P
193.0 132.0 M
193.0 132.0 L
193.0 134.0 L
193.0 134.552 192.552 135.0 192.0 135.0 C
191.448 135.0 191.0 134.552 191.0 134.0 C
191.0 134.0 L
191.0 132.0 L
191.0 131.448 191.448 131.0 192.0 131.0 C
192.552 131.0 193.0 131.448 193.0 132.0 C
P
193.0 142.0 M
193.0 142.0 L
193.0 144.0 L
193.0 144.552 192.552 145.0 192.0 145.0 C
191.448 145.0 191.0 144.552 191.0 144.0 C
191.0 144.0 L
191.0 142.0 L
191.0 141.448 191.448 141.0 192.0 141.0 C
192.552 141.0 193.0 141.448 193.0 142.0 C
P
193.0 152.0 M
193.0 152.0 L
193.0 154.0 L
193.0 154.552 192.552 155.0 192.0 155.0 C
191.448 155.0 191.0 154.552 191.0 154.0 C
191.0 154.0 L
191.0 152.0 L
191.0 151.448 191.448 151.0 192.0 151.0 C
192.552 151.0 193.0 151.448 193.0 152.0 C
P
193.0 162.0 M
193.0 162.0 L
193.0 164.0 L
193.0 164.552 192.552 165.0 192.0 165.0 C
191.448 165.0 191.0 164.552 191.0 164.0 C
191.0 164.0 L
191.0 162.0 L
191.0 161.448 191.448 161.0 192.0 161.0 C
192.552 161.0 193.0 161.448 193.0 162.0 C
P
193.0 172.0 M
193.0 172.0 L
193.0 174.0 L
193.0 174.552 192.552 175.0 192.0 175.0 C
191.448 175.0 191.0 174.552 191.0 174.0 C
191.0 174.0 L
191.0 172.0 L
191.0 171.448 191.448 171.0 192.0 171.0 C
192.552 171.0 193.0 171.448 193.0 172.0 C
P
193.0 182.0 M
193.0 182.0 L
193.0 184.0 L
193.0 184.552 192.552 185.0 192.0 185.0 C
191.448 185.0 191.0 184.552 191.0 184.0 C
191.0 184.0 L
191.0 182.0 L
191.0 181.448 191.448 181.0 192.0 181.0 C
192.552 181.0 193.0 181.448 193.0 182.0 C
P
193.0 32.0 M
193.0 32.0 L
193.0 34.0 L
193.0 34.552 192.552 35.0 192.0 35.0 C
191.448 35.0 191.0 34.552 191.0 34.0 C
191.0 34.0 L
191.0 32.0 L
191.0 31.448 191.448 31.0 192.0 31.0 C
192.552 31.0 193.0 31.448 193.0 32.0 C
P
G
WC
WF
R N
N
80.447 79.106 M
80.447 79.106 L
144.447 111.106 L
145.342 111.553 L
144.447 113.342 L
143.553 112.894 L
79.553 80.894 L
78.658 80.447 L
79.553 78.658 L
P
G
WC
WF
R N
N
114.981 97.491 M
107.826 96.894 L
110.211 95.106 L
110.211 92.124 L
P
G
WC
WF
R N
N
114.94 97.989 M
114.94 97.989 L
107.784 97.393 L
106.474 97.283 L
107.526 96.494 L
109.911 94.706 L
110.211 95.106 L
109.711 95.106 L
109.711 92.124 L
109.711 90.809 L
110.585 91.792 L
115.355 97.159 L
116.186 98.093 L
114.94 97.989 L
115.023 96.992 M
114.981 97.491 L
114.608 97.823 L
109.837 92.456 L
110.211 92.124 L
110.711 92.124 L
110.711 95.106 L
110.711 95.356 L
110.511 95.506 L
108.126 97.294 L
107.826 96.894 L
107.868 96.396 L
115.023 96.992 L
P
G
WC
WF
R N
N
144.447 112.894 M
144.447 112.894 L
80.447 144.894 L
79.553 145.342 L
78.658 143.553 L
79.553 143.106 L
143.553 111.106 L
144.447 110.658 L
145.342 112.447 L
P
G
WC
WF
R N
N
109.019 129.491 M
113.789 124.124 L
113.789 127.106 L
116.174 128.894 L
P
G
WC
WF
R N
N
108.645 129.159 M
108.645 129.159 L
113.415 123.792 L
114.289 122.809 L
114.289 124.124 L
114.289 127.106 L
113.789 127.106 L
114.089 126.706 L
116.474 128.494 L
117.526 129.283 L
116.216 129.393 L
109.06 129.989 L
107.814 130.093 L
108.645 129.159 L
109.392 129.823 M
109.019 129.491 L
108.977 128.992 L
116.132 128.396 L
116.174 128.894 L
115.874 129.294 L
113.489 127.506 L
113.289 127.356 L
113.289 127.106 L
113.289 124.124 L
113.789 124.124 L
114.163 124.456 L
109.392 129.823 L
P
G
WC
WF
R N
N
79.0 144.0 M
79.0 144.0 L
79.0 80.0 L
79.0 79.0 L
81.0 79.0 L
81.0 80.0 L
81.0 144.0 L
81.0 145.0 L
79.0 145.0 L
P
G
WC
WF
R N
N
80.0 108.667 M
82.667 115.333 L
80.0 114.0 L
77.333 115.333 L
P
G
WC
WF
R N
N
80.464 108.481 M
80.464 108.481 L
83.131 115.148 L
83.619 116.369 L
82.443 115.781 L
79.776 114.447 L
80.0 114.0 L
80.224 114.447 L
77.557 115.781 L
76.381 116.369 L
76.869 115.148 L
79.536 108.481 L
80.0 107.32 L
80.464 108.481 L
79.536 108.852 M
80.0 108.667 L
80.464 108.852 L
77.798 115.519 L
77.333 115.333 L
77.11 114.886 L
79.776 113.553 L
80.0 113.441 L
80.224 113.553 L
82.89 114.886 L
82.667 115.333 L
82.202 115.519 L
79.536 108.852 L
P
G
WC
WF
R N
N
255.445 111.168 M
255.445 111.168 L
303.445 79.168 L
304.277 78.613 L
305.387 80.277 L
304.555 80.832 L
256.555 112.832 L
255.723 113.387 L
254.613 111.723 L
P
G
WC
WF
R N
N
282.774 94.151 M
278.706 100.068 L
278.336 97.109 L
275.747 95.63 L
P
G
WC
WF
R N
N
283.186 94.434 M
283.186 94.434 L
279.118 100.351 L
278.373 101.435 L
278.21 100.13 L
277.84 97.171 L
278.336 97.109 L
278.088 97.544 L
275.499 96.064 L
274.357 95.412 L
275.644 95.141 L
282.671 93.662 L
283.894 93.404 L
283.186 94.434 L
282.361 93.868 M
282.774 94.151 L
282.877 94.64 L
275.85 96.119 L
275.747 95.63 L
275.995 95.196 L
278.584 96.675 L
278.801 96.799 L
278.832 97.047 L
279.202 100.006 L
278.706 100.068 L
278.294 99.785 L
282.361 93.868 L
P
G
WC
WF
R N
N
305.0 80.0 M
305.0 80.0 L
305.0 144.0 L
305.0 145.0 L
303.0 145.0 L
303.0 144.0 L
303.0 80.0 L
303.0 79.0 L
305.0 79.0 L
P
G
WC
WF
R N
N
304.0 115.333 M
301.333 108.667 L
304.0 110.0 L
306.667 108.667 L
P
G
WC
WF
R N
N
303.536 115.519 M
303.536 115.519 L
300.869 108.852 L
300.381 107.631 L
301.557 108.219 L
304.224 109.553 L
304.0 110.0 L
303.776 109.553 L
306.443 108.219 L
307.619 107.631 L
307.131 108.852 L
304.464 115.519 L
304.0 116.68 L
303.536 115.519 L
304.464 115.148 M
304.0 115.333 L
303.536 115.148 L
306.202 108.481 L
306.667 108.667 L
306.89 109.114 L
304.224 110.447 L
304.0 110.559 L
303.776 110.447 L
301.11 109.114 L
301.333 108.667 L
301.798 108.481 L
304.464 115.148 L
P
G
WC
WF
R N
N
303.445 144.832 M
303.445 144.832 L
255.445 112.832 L
254.613 112.277 L
255.723 110.613 L
256.555 111.168 L
304.555 143.168 L
305.387 143.723 L
304.277 145.387 L
P
G
WC
WF
R N
N
277.227 126.151 M
284.253 127.63 L
281.664 129.109 L
281.294 132.068 L
P
G
WC
WF
R N
N
277.33 125.662 M
277.33 125.662 L
284.356 127.141 L
285.643 127.412 L
284.501 128.064 L
281.912 129.544 L
281.664 129.109 L
282.16 129.171 L
281.79 132.13 L
281.627 133.435 L
280.882 132.351 L
276.814 126.434 L
276.106 125.404 L
277.33 125.662 L
277.124 126.64 M
277.227 126.151 L
277.639 125.868 L
281.706 131.785 L
281.294 132.068 L
280.798 132.006 L
281.168 129.047 L
281.199 128.799 L
281.416 128.675 L
284.005 127.196 L
284.253 127.63 L
284.15 128.119 L
277.124 126.64 L
P
G
WC
WF
R N
R
G
[4.1666665 0.0 0.0 4.1666665 300.0 300.0] concat
N
0.0 -1.4210855E-14 M
468.0 -1.4210855E-14 L
468.0 648.0 L
0.0 648.0 L
0.0 -1.4210855E-14 L
P
WC
18.0 19 F
<74> 7.0 96.0 112.0 S
18.0 19 F
<62> 11.0 288.0 112.0 S
pgSave restore
showpage
%%EOF
